;FLAVOR:Marlin
;TIME:139
;Filament used: 0.0879265m
;Layer height: 0.175
;MINX:43.896
;MINY:58.863
;MINZ:0.306
;MAXX:67.747
;MAXY:71.469
;MAXZ:2.145
;Generated with Cura_SteamEngine master
M140 S65
M105
M190 S65
M104 S205
M105
M109 S205
M82 ;absolute extrusion mode
G21;(metric values)
G90;(absolute positioning)
M82;(set extruder to absolute mode)
M107;(start with the fan off)
G28;(Home the printer)
G92 E0;(Reset the extruder to 0)
G0 Z5 E5 F500;(Move up and prime the nozzle)
G0 X-1 Z0;(Move outside the printable area)
G1 Y60 E8 F500;(Draw a priming/wiping line to the rear)
G1 X-1;(Move a little closer to the print area)
G1 Y10 E16 F500;(draw more priming/wiping)
G1 E15 F250;(Small retract)
G92 E0;(Zero the extruder)
M141 S28
G92 E0
G92 E0
G1 F2400 E-2.5
;LAYER_COUNT:7
;LAYER:-5
M107
G0 F7200 X46.127 Y59.972 Z0.306
;TYPE:SUPPORT-INTERFACE
G1 F2400 E0
G1 F1125 X46.358 Y59.816 E0.02837
G1 X46.626 Y59.658 E0.06003
G1 X46.883 Y59.528 E0.08934
G1 X47.153 Y59.412 E0.11925
G1 X47.409 Y59.32 E0.14694
G1 X47.701 Y59.236 E0.17786
G1 X47.962 Y59.18 E0.20503
G1 X48.282 Y59.132 E0.23796
G1 X48.75 Y59.096 E0.28574
G1 X48.942 Y59.089 E0.30529
G1 X62.869 Y59.093 E1.72272
G1 X63.246 Y59.117 E1.76117
G1 X63.544 Y59.154 E1.79173
G1 X63.828 Y59.209 E1.82118
G1 X64.119 Y59.285 E1.85179
G1 X64.377 Y59.369 E1.8794
G1 X64.656 Y59.48 E1.90996
G1 X64.914 Y59.602 E1.93901
G1 X65.173 Y59.746 E1.96917
G1 X65.392 Y59.885 E1.99557
G1 X65.658 Y60.083 E2.02932
G1 X66.012 Y60.387 E2.07681
G1 X66.134 Y60.499 E2.09366
G1 X66.213 Y60.584 E2.10547
G1 X66.472 Y60.879 E2.14543
G1 X66.639 Y61.094 E2.17313
G1 X66.795 Y61.325 E2.2015
G1 X66.953 Y61.593 E2.23317
G1 X67.085 Y61.852 E2.26275
G1 X67.188 Y62.091 E2.28924
G1 X67.293 Y62.383 E2.32082
G1 X67.374 Y62.665 E2.35068
G1 X67.43 Y62.919 E2.37715
G1 X67.479 Y63.249 E2.41111
G1 X67.515 Y63.71 E2.45817
G1 X67.522 Y63.895 E2.47701
G1 X67.518 Y66.591 E2.7514
G1 X67.494 Y66.968 E2.78985
G1 X67.457 Y67.266 E2.82041
G1 X67.402 Y67.55 E2.84985
G1 X67.326 Y67.841 E2.88046
G1 X67.242 Y68.099 E2.90808
G1 X67.131 Y68.378 E2.93864
G1 X67.009 Y68.636 E2.96768
G1 X66.865 Y68.895 E2.99784
G1 X66.726 Y69.114 E3.02424
G1 X66.528 Y69.38 E3.05799
G1 X66.224 Y69.734 E3.10548
G1 X66.112 Y69.856 E3.12234
G1 X66.027 Y69.935 E3.13415
G1 X65.734 Y70.192 E3.17381
G1 X65.517 Y70.361 E3.20181
G1 X65.286 Y70.517 E3.23018
G1 X65.018 Y70.675 E3.26184
G1 X64.761 Y70.805 E3.29115
G1 X64.492 Y70.92 E3.32093
G1 X64.235 Y71.013 E3.34874
G1 X63.943 Y71.097 E3.37967
G1 X63.682 Y71.153 E3.40683
G1 X63.362 Y71.201 E3.43977
G1 X62.894 Y71.237 E3.48754
G1 X62.702 Y71.244 E3.50709
G1 X48.775 Y71.24 E4.92453
G1 X48.398 Y71.216 E4.96297
G1 X48.1 Y71.179 E4.99354
G1 X47.816 Y71.124 E5.02298
G1 X47.525 Y71.048 E5.05359
G1 X47.265 Y70.963 E5.08143
G1 X46.988 Y70.853 E5.11176
G1 X46.729 Y70.73 E5.14094
G1 X46.471 Y70.587 E5.17097
G1 X46.252 Y70.448 E5.19736
G1 X45.986 Y70.25 E5.23111
G1 X45.632 Y69.946 E5.2786
G1 X45.51 Y69.834 E5.29546
G1 X45.431 Y69.749 E5.30727
G1 X45.172 Y69.454 E5.34722
G1 X45.005 Y69.239 E5.37493
G1 X44.846 Y69.003 E5.40389
G1 X44.691 Y68.74 E5.43496
G1 X44.561 Y68.483 E5.46428
G1 X44.445 Y68.213 E5.49418
G1 X44.353 Y67.957 E5.52187
G1 X44.269 Y67.665 E5.55279
G1 X44.213 Y67.404 E5.57996
G1 X44.165 Y67.084 E5.61289
G1 X44.128 Y66.606 E5.66169
G1 X44.122 Y66.438 E5.6788
G1 X44.126 Y63.742 E5.95319
G1 X44.15 Y63.365 E5.99163
G1 X44.187 Y63.067 E6.0222
G1 X44.242 Y62.783 E6.05164
G1 X44.318 Y62.492 E6.08225
G1 X44.402 Y62.234 E6.10986
G1 X44.513 Y61.955 E6.14042
G1 X44.635 Y61.697 E6.16947
G1 X44.774 Y61.447 E6.19858
G1 X44.926 Y61.209 E6.22732
G1 X45.116 Y60.953 E6.25977
G1 X45.42 Y60.599 E6.30726
G1 X45.532 Y60.477 E6.32411
G1 X45.617 Y60.398 E6.33593
G1 X45.912 Y60.139 E6.37588
G1 X45.921 Y60.132 E6.37704
G0 F1012.5 X46.127 Y59.972
G0 F7200 X46.4 Y59.791
G1 F2400 E6.4036
G1 F1125 X46.4 Y70.541 E7.49769
G0 F7200 X48 Y71.159
G1 F1125 X48 Y59.174 E8.71748
G0 F7200 X49.6 Y59.09
G1 F1125 X49.6 Y71.24 E9.95406
G0 F7200 X51.2 Y71.24
G1 F1125 X51.2 Y59.09 E11.19064
G0 F7200 X52.8 Y59.091
G1 F1125 X52.8 Y71.241 E12.42722
G0 F7200 X54.4 Y71.241
G1 F1125 X54.4 Y59.091 E13.66379
G0 F7200 X56 Y59.092
G1 F1125 X56 Y71.242 E14.90037
G0 F7200 X57.6 Y71.242
G1 F1125 X57.6 Y59.092 E16.13695
G0 F7200 X59.2 Y59.092
G1 F1125 X59.2 Y71.242 E17.37353
G0 F7200 X60.8 Y71.243
G1 F1125 X60.8 Y59.093 E18.61011
G0 F7200 X62.4 Y59.093
G1 F1125 X62.4 Y71.243 E19.84669
G0 F7200 X64 Y71.081
G1 F1125 X64 Y59.254 E21.05039
G0 F7200 X65.6 Y60.04
G1 F1125 X65.6 Y70.297 E22.09431
M104 S200
G0 F7200 X67.2 Y68.205
G1 F1125 X67.2 Y62.125 E22.71311
G0 F7200 X44.8 Y61.406
G1 F1125 X44.8 Y68.924 E23.47826
G0 F600 X44.8 Y68.924 Z0.525
G0 F7200 X44.743 Y68.926
;TIME_ELAPSED:40.574043
;LAYER:-4
M140 S60
;TYPE:SUPPORT
G1 F1125 X46.444 Y70.627 E23.63158
G1 X46.222 Y70.487 E23.64831
G1 X45.95 Y70.286 E23.66986
G1 X45.482 Y69.876 E23.70952
G1 X45.386 Y69.773 E23.71849
G1 X45.139 Y69.492 E23.74234
G1 X44.967 Y69.272 E23.76013
G1 X44.802 Y69.027 E23.77896
G0 F7200 X46.444 Y70.627
G1 F1125 X46.449 Y70.63 E23.77933
G1 X46.7 Y70.77 E23.79765
G1 X46.98 Y70.903 E23.81741
G1 X47.227 Y71.002 E23.83437
G1 X47.513 Y71.095 E23.85353
G1 X47.81 Y71.173 E23.8731
G1 X48.1 Y71.229 E23.89193
G1 X48.349 Y71.26 E23.90792
G1 X44.109 Y67.019 E24.29014
G1 X44.078 Y66.609 E24.31634
G1 X44.071 Y66.437 E24.32731
G1 X44.072 Y65.71 E24.37365
G1 X49.651 Y71.289 E24.87651
G1 X50.924 Y71.289 E24.95764
G1 X44.074 Y64.439 E25.57507
G1 X44.076 Y63.739 E25.61968
G1 X44.1 Y63.356 E25.64414
G1 X44.117 Y63.209 E25.65357
G1 X52.197 Y71.289 E26.38186
G1 X53.471 Y71.29 E26.46305
G1 X44.366 Y62.185 E27.28373
G1 X44.46 Y61.947 E27.30004
G1 X44.595 Y61.666 E27.31991
G1 X44.725 Y61.427 E27.33725
G1 X44.786 Y61.333 E27.34439
G1 X54.744 Y71.29 E28.2419
G1 X56.017 Y71.291 E28.32304
G1 X45.341 Y60.615 E29.28531
G1 X45.486 Y60.451 E29.29927
G1 X45.592 Y60.352 E29.30851
G1 X45.872 Y60.105 E29.33231
G1 X46.003 Y60.004 E29.34285
G1 X57.29 Y71.291 E30.3602
G1 X58.563 Y71.291 E30.44133
G1 X46.789 Y59.517 E31.50258
G1 X46.848 Y59.487 E31.5068
G1 X47.133 Y59.365 E31.52655
G1 X47.407 Y59.266 E31.54512
G1 X47.677 Y59.189 E31.56302
G1 X47.724 Y59.179 E31.56608
G1 X59.836 Y71.291 E32.65779
G1 X61.11 Y71.292 E32.73899
G1 X48.858 Y59.041 E33.84327
G1 X48.939 Y59.038 E33.84844
G1 X50.129 Y59.039 E33.92428
G1 X62.383 Y71.292 E35.02874
G1 X62.703 Y71.293 E35.04914
G1 X62.898 Y71.286 E35.06158
G1 X63.371 Y71.25 E35.09181
G1 X63.581 Y71.218 E35.10535
G1 X51.403 Y59.039 E36.20305
G1 X52.675 Y59.039 E36.28412
G1 X64.573 Y70.937 E37.35654
G1 X64.795 Y70.843 E37.37191
G1 X65.043 Y70.718 E37.38961
G1 X65.297 Y70.567 E37.40844
G1 X65.403 Y70.495 E37.41661
G1 X53.949 Y59.04 E38.44905
G1 X55.222 Y59.041 E38.53019
G1 X66.108 Y69.926 E39.51135
G1 X66.158 Y69.88 E39.51568
G1 X66.564 Y69.414 E39.55507
G1 X66.694 Y69.239 E39.56896
G1 X56.495 Y59.041 E40.4882
G1 X57.769 Y59.042 E40.5694
G1 X67.16 Y68.433 E41.41585
G1 X67.183 Y68.384 E41.4193
G1 X67.281 Y68.136 E41.4363
G1 X67.373 Y67.851 E41.45539
G1 X67.452 Y67.555 E41.47491
G1 X67.469 Y67.469 E41.4805
G1 X59.042 Y59.042 E42.24006
G1 X60.315 Y59.042 E42.3212
G1 X67.568 Y66.295 E42.97494
G1 X67.57 Y65.024 E43.05595
G1 X61.589 Y59.043 E43.59504
G1 X62.861 Y59.043 E43.67611
G1 X67.566 Y63.748 E44.1002
G1 X67.564 Y63.708 E44.10275
G1 X67.527 Y63.238 E44.1328
G1 X67.479 Y62.914 E44.15367
G1 X67.419 Y62.641 E44.17149
G1 X67.344 Y62.383 E44.18861
G1 X67.273 Y62.182 E44.2022
G1 X64.425 Y59.334 E44.4589
G1 X64.662 Y59.428 E44.47515
G1 X64.943 Y59.562 E44.49499
G1 X65.193 Y59.701 E44.51322
G1 X65.42 Y59.843 E44.53029
G1 X65.692 Y60.045 E44.55188
G1 X66.161 Y60.456 E44.59163
G1 X66.25 Y60.55 E44.59988
G1 X66.504 Y60.84 E44.62445
G1 X66.675 Y61.059 E44.64216
G1 X66.849 Y61.318 E44.66204
G1 X66.996 Y61.568 E44.68053
G1 X67.127 Y61.825 E44.69891
G1 X67.234 Y62.074 E44.71619
G0 F600 X67.234 Y62.074 Z0.7
G0 F7200 X67.74 Y63.7
;TIME_ELAPSED:58.774782
;LAYER:-3
;TYPE:SUPPORT-INTERFACE
G1 F1500 X43.906 Y63.7 E45.32311
G1 X43.925 Y63.35 E45.33204
G1 X67.703 Y63.35 E45.93754
G1 X67.666 Y63 E45.9465
G1 X43.98 Y63 E46.54966
G1 X44.022 Y62.729 E46.55665
G1 X44.046 Y62.65 E46.55875
G1 X67.594 Y62.65 E47.15839
G1 X67.511 Y62.324 E47.16696
G1 X67.502 Y62.3 E47.16761
G1 X44.148 Y62.3 E47.76232
G1 X44.191 Y62.151 E47.76627
G1 X44.279 Y61.95 E47.77185
G1 X67.365 Y61.95 E48.35973
G1 X67.284 Y61.746 E48.36532
G1 X67.204 Y61.6 E48.36956
G1 X44.432 Y61.6 E48.94945
G1 X44.437 Y61.588 E48.94978
G1 X44.639 Y61.25 E48.95981
G1 X67.012 Y61.25 E49.52953
G1 X66.989 Y61.21 E49.5307
G1 X66.765 Y60.9 E49.54044
G1 X44.885 Y60.9 E50.09761
G1 X45.169 Y60.55 E50.10909
G1 X66.473 Y60.55 E50.65159
G1 X66.154 Y60.211 E50.66345
G1 X66.141 Y60.2 E50.66388
G1 X45.518 Y60.2 E51.18904
G1 X45.762 Y59.97 E51.19758
G1 X45.928 Y59.85 E51.2028
G1 X65.708 Y59.85 E51.70649
G1 X65.529 Y59.706 E51.71234
G1 X65.183 Y59.5 E51.72259
G1 X46.465 Y59.5 E52.19924
G1 X46.78 Y59.327 E52.20839
G1 X47.231 Y59.15 E52.22073
G1 X64.433 Y59.15 E52.65878
G0 F7200 X63.882 Y58.989
G1 F1500 X63.269 Y58.893 E52.67458
G1 X62.75 Y58.863 E52.68782
G1 X48.735 Y58.871 E53.04471
G1 X47.925 Y58.957 E53.06545
G1 X47.358 Y59.1 E53.08034
G1 X47.231 Y59.15 E53.08381
G0 F7200 X48.374 Y71.439
G1 F1500 X48.893 Y71.469 E53.09705
G1 X62.908 Y71.462 E53.45394
G1 X63.491 Y71.4 E53.46887
G1 X48.124 Y71.4 E53.86019
G1 X47.761 Y71.343 E53.86955
G1 X47.183 Y71.174 E53.88488
G1 X46.9 Y71.05 E53.89275
G1 X64.75 Y71.05 E54.34729
G1 X64.863 Y71.006 E54.35038
G1 X65.399 Y70.711 E54.36596
G1 X65.414 Y70.7 E54.36644
G1 X46.237 Y70.7 E54.85477
G1 X46.113 Y70.626 E54.85845
G1 X45.771 Y70.35 E54.86964
G1 X65.894 Y70.35 E55.38207
G1 X66.267 Y70 E55.3951
G1 X45.375 Y70 E55.92711
G1 X45.046 Y69.65 E55.93934
G1 X66.581 Y69.65 E56.48772
G1 X66.865 Y69.3 E56.4992
G1 X44.782 Y69.3 E57.06154
G1 X44.651 Y69.118 E57.06725
G1 X44.558 Y68.95 E57.07214
G1 X67.083 Y68.95 E57.64573
G1 X67.206 Y68.745 E57.65182
G1 X67.269 Y68.6 E57.65585
G1 X44.367 Y68.6 E58.23904
G1 X44.359 Y68.585 E58.23948
G1 X44.227 Y68.25 E58.24864
G1 X67.422 Y68.25 E58.8393
G1 X67.452 Y68.182 E58.84119
G1 X67.534 Y67.9 E58.84867
G1 X44.104 Y67.9 E59.44531
G1 X44.016 Y67.55 E59.4545
G1 X67.629 Y67.55 E60.0558
G1 X67.684 Y67.2 E60.06482
G1 X43.963 Y67.2 E60.66887
G1 X43.926 Y66.85 E60.67784
G1 X67.725 Y66.85 E61.28387
G1 X67.745 Y66.5 E61.2928
G1 X43.902 Y66.5 E61.89996
G1 X43.901 Y66.15 E61.90887
G1 X67.747 Y66.15 E62.5161
G1 X67.746 Y65.8 E62.52502
G1 X43.9 Y65.8 E63.13225
G1 X43.9 Y65.45 E63.14116
G1 X67.745 Y65.45 E63.74837
G1 X67.744 Y65.1 E63.75728
G1 X43.899 Y65.1 E64.36449
G1 X43.898 Y64.75 E64.3734
G1 X67.743 Y64.75 E64.98061
G1 X67.742 Y64.4 E64.98952
G1 X43.897 Y64.4 E65.59673
G1 X43.896 Y64.05 E65.60564
G1 X67.741 Y64.05 E66.21285
G1 X67.74 Y63.701 E66.22174
G1 X67.74 Y63.7 E66.22177
G0 F600 X67.74 Y63.7 Z1.226
G0 F7200 X49.572 Y65.794
;TIME_ELAPSED:93.897578
;LAYER:0
M106 S255
;TYPE:WALL-INNER
;MESH:alarm door.stl
G1 F1629.9 X49.572 Y64.539 E66.26979
G1 X53.248 Y64.539 E66.41047
G1 X53.248 Y65.794 E66.4585
G1 X50.208 Y65.794 E66.57484
G0 F1466.9 X49.572 Y65.794
G0 F4320 X57.346 Y65.839
G0 X57.906 Y65.794
G1 F2400 E66.59918
G1 F1629.9 X57.906 Y64.539 E66.64721
G1 X62.072 Y64.539 E66.80664
G1 X62.072 Y65.794 E66.85467
G1 X58.6 Y65.794 E66.98755
G0 F1466.9 X57.906 Y65.794
G0 F4320 X53.598 Y66.049
G1 F2400 E67.01411
G1 F1629.9 X57.556 Y66.049 E67.16558
G1 X57.556 Y64.189 E67.23676
G1 X62.422 Y64.189 E67.42298
G1 X62.422 Y66.144 E67.4978
G1 X57.556 Y66.144 E67.68402
G1 X53.598 Y66.144 E67.72514
G1 X49.222 Y66.144 E67.8926
G1 X49.222 Y64.189 E67.96742
G1 X53.598 Y64.189 E68.13489
G1 X53.598 Y65.444 E68.18292
G0 F1466.9 X53.598 Y66.049
G0 F4320 X53.923 Y65.724
;TYPE:WALL-OUTER
G1 F2400 E68.20607
G1 F1629.9 X57.231 Y65.724 E68.33267
G1 X57.231 Y64.16 E68.39253
G1 X53.923 Y64.16 E68.51912
G1 X53.923 Y65.249 E68.5608
G0 F1466.9 X53.923 Y65.724
G0 F4320 X54.123 Y65.724
G0 X54.123 Y65.911
G0 X49.054 Y66.312
G0 X48.897 Y66.469
G1 F2400 E68.57898
G1 F1629.9 X48.897 Y63.864 E68.67867
G1 X53.923 Y63.864 E68.87101
G1 X57.231 Y63.864 E68.97808
G1 X62.747 Y63.864 E69.18918
G1 X62.747 Y66.469 E69.28887
G1 X49.591 Y66.469 E69.79235
G0 F1466.9 X48.897 Y66.469
G0 F4320 X48.897 Y66.269
G0 X49.084 Y66.269
G0 X49.657 Y65.454
G0 X49.912 Y65.454
;TYPE:SKIN
G1 F2400 E69.81891
G1 F1629.9 X49.912 Y64.879 E69.84091
G1 X52.908 Y64.879 E69.95557
G1 X52.908 Y65.454 E69.97758
G1 X50.397 Y65.454 E70.07367
G0 F1466.9 X49.912 Y65.454
G0 F4320 X50.186 Y65.035
G1 F2400 E70.09223
G1 F1629.9 X50.447 Y65.296 E70.10636
G0 F4320 X50.681 Y65.035
G1 F1629.9 X50.942 Y65.296 E70.12048
G0 F4320 X51.176 Y65.035
G1 F1629.9 X51.437 Y65.296 E70.13461
G0 F4320 X51.671 Y65.035
G1 F1629.9 X51.932 Y65.296 E70.14874
G0 F4320 X52.166 Y65.035
G1 F1629.9 X52.427 Y65.296 E70.16286
G0 F4320 X52.661 Y65.035
G1 F1629.9 X52.75 Y65.125 E70.1677
G0 F4320 X53.163 Y65.125
G0 X53.808 Y64.045
G0 X57.346 Y64.045
G0 X58.246 Y64.624
G0 X58.246 Y64.879
G1 F1629.9 X61.732 Y64.879 E70.30111
G1 X61.732 Y65.454 E70.32312
G1 X58.246 Y65.454 E70.45653
G1 X58.246 Y65.221 E70.46545
G0 F1466.9 X58.246 Y64.879
G0 F4320 X58.6 Y65.035
G1 F2400 E70.47853
G1 F1629.9 X58.861 Y65.296 E70.49266
G0 F4320 X59.095 Y65.035
G1 F1629.9 X59.356 Y65.296 E70.50679
G0 F4320 X59.59 Y65.035
G1 F1629.9 X59.851 Y65.296 E70.52091
G0 F4320 X60.085 Y65.035
G1 F1629.9 X60.346 Y65.296 E70.53504
G0 F4320 X60.58 Y65.035
G1 F1629.9 X60.841 Y65.296 E70.54916
G0 F4320 X61.075 Y65.035
G1 F1629.9 X61.336 Y65.296 E70.56329
G0 F4320 X61.336 Y65.959
;MESH:NONMESH
G0 F600 X61.336 Y65.959 Z1.27
G0 F4320 X49.572 Y65.794
;TIME_ELAPSED:100.033791
;LAYER:1
;TYPE:WALL-INNER
;MESH:alarm door.stl
G1 F1810.1 X49.572 Y64.539 E70.59525
G1 X53.248 Y64.539 E70.68886
G1 X53.248 Y65.794 E70.72081
G1 X50.207 Y65.794 E70.79825
G0 F1629.1 X49.572 Y65.794
G0 F5760 X57.346 Y65.839
G0 X57.906 Y65.794
G1 F2400 E70.81442
G1 F1810.1 X57.906 Y64.539 E70.84638
G1 X62.072 Y64.539 E70.95247
G1 X62.072 Y65.794 E70.98442
G1 X58.614 Y65.794 E71.07248
G0 F1629.1 X57.906 Y65.794
G0 F5760 X53.598 Y66.049
G1 F2400 E71.09051
G1 F1810.1 X57.556 Y66.049 E71.1913
G1 X57.556 Y64.189 E71.23867
G1 X62.422 Y64.189 E71.36258
G1 X62.422 Y66.144 E71.41236
G1 X57.556 Y66.144 E71.53627
G1 X53.598 Y66.144 E71.56363
G1 X49.222 Y66.144 E71.67506
G1 X49.222 Y64.189 E71.72485
G1 X53.598 Y64.189 E71.83628
G1 X53.598 Y65.444 E71.86824
G0 F1629.1 X53.598 Y66.049
G0 F5760 X53.923 Y65.724
;TYPE:WALL-OUTER
G1 F2400 E71.88365
G1 F1527.2 X57.231 Y65.724 E71.96788
G1 X57.231 Y64.16 E72.00771
G1 X53.923 Y64.16 E72.09195
G1 X53.923 Y65.249 E72.11968
G0 F1374.5 X53.923 Y65.724
G0 F5760 X54.123 Y65.724
G0 X54.123 Y65.911
G0 X49.054 Y66.312
G0 X48.897 Y66.469
G1 F2400 E72.13177
G1 F1527.2 X48.897 Y63.864 E72.19811
G1 X53.923 Y63.864 E72.3261
G1 X57.231 Y63.864 E72.39734
G1 X62.747 Y63.864 E72.5378
G1 X62.747 Y66.469 E72.60414
G1 X49.939 Y66.469 E72.93029
G0 F1374.5 X48.897 Y66.469
G0 F5760 X48.897 Y66.269
G0 X49.084 Y66.269
G0 X49.657 Y65.454
G0 X49.912 Y65.454
;TYPE:SKIN
G1 F2400 E72.95682
G1 F1131.3 X49.912 Y64.879 E72.97147
G1 X52.908 Y64.879 E73.04776
G1 X52.908 Y65.454 E73.0624
G1 X50.397 Y65.454 E73.12634
G0 F1018.2 X49.912 Y65.454
G0 F5760 X50.069 Y65.259
G1 F2400 E73.13869
G1 F1131.3 X50.294 Y65.034 E73.1468
G0 F5760 X50.527 Y65.296
G1 F1131.3 X50.789 Y65.034 E73.15623
G0 F5760 X51.022 Y65.296
G1 F1131.3 X51.284 Y65.034 E73.16567
G0 F5760 X51.517 Y65.296
G1 F1131.3 X51.779 Y65.034 E73.1751
G0 F5760 X52.012 Y65.296
G1 F1131.3 X52.274 Y65.034 E73.18454
G0 F5760 X52.507 Y65.296
G1 F1131.3 X52.75 Y65.053 E73.19329
G0 F5760 X53.163 Y65.053
G0 X53.808 Y64.045
G0 X57.346 Y64.045
G0 X58.246 Y64.624
G0 X58.246 Y64.879
G1 F1131.3 X61.732 Y64.879 E73.28206
G1 X61.732 Y65.454 E73.2967
G1 X58.246 Y65.454 E73.38547
G1 X58.246 Y65.221 E73.3914
G0 F1018.2 X58.246 Y64.879
G0 F5760 X58.447 Y65.296
G1 F2400 E73.40011
G1 F1131.3 X58.708 Y65.035 E73.40951
G0 F5760 X58.942 Y65.296
G1 F1131.3 X59.203 Y65.035 E73.41891
G0 F5760 X59.437 Y65.296
G1 F1131.3 X59.698 Y65.035 E73.42831
G0 F5760 X59.932 Y65.296
G1 F1131.3 X60.193 Y65.035 E73.43771
G0 F5760 X60.427 Y65.296
G1 F1131.3 X60.688 Y65.035 E73.44711
G0 F5760 X60.922 Y65.296
G1 F1131.3 X61.183 Y65.035 E73.45651
G0 F5760 X61.417 Y65.296
G1 F1131.3 X61.574 Y65.138 E73.46218
G0 F5760 X62.237 Y65.138
;MESH:NONMESH
G0 F600 X62.237 Y65.138 Z1.445
G0 F5760 X57.346 Y65.839
G0 X49.572 Y65.794
;TIME_ELAPSED:106.505070
;LAYER:2
;TYPE:WALL-INNER
;MESH:alarm door.stl
G1 F2077.6 X49.572 Y64.539 E73.49414
G1 X53.248 Y64.539 E73.58775
G1 X53.248 Y65.794 E73.61971
G1 X50.207 Y65.794 E73.69715
G0 F1869.9 X49.572 Y65.794
G0 F7200 X57.346 Y65.839
G0 X57.906 Y65.794
G1 F2400 E73.71332
G1 F2077.6 X57.906 Y64.539 E73.74527
G1 X62.072 Y64.539 E73.85136
G1 X62.072 Y65.794 E73.88332
G1 X58.614 Y65.794 E73.97138
G0 F1869.9 X57.906 Y65.794
G0 F7200 X53.598 Y66.049
G1 F2400 E73.9894
G1 F2077.6 X57.556 Y66.049 E74.09019
G1 X57.556 Y64.189 E74.13756
G1 X62.422 Y64.189 E74.26147
G1 X62.422 Y66.144 E74.31125
G1 X57.556 Y66.144 E74.43517
G1 X53.598 Y66.144 E74.46252
G1 X49.222 Y66.144 E74.57396
G1 X49.222 Y64.189 E74.62374
G1 X53.598 Y64.189 E74.73517
G1 X53.598 Y65.444 E74.76713
G0 F1869.9 X53.598 Y66.049
G0 F7200 X53.923 Y65.724
;TYPE:WALL-OUTER
G1 F2400 E74.78254
G1 F1558.2 X57.231 Y65.724 E74.86678
G1 X57.231 Y64.16 E74.9066
G1 X53.923 Y64.16 E74.99084
G1 X53.923 Y65.249 E75.01857
G0 F1402.4 X53.923 Y65.724
G0 F7200 X54.123 Y65.724
G0 X54.123 Y65.911
G0 X49.054 Y66.312
G0 X48.897 Y66.469
G1 F2400 E75.03067
G1 F1558.2 X48.897 Y63.864 E75.097
G1 X53.923 Y63.864 E75.22499
G1 X57.231 Y63.864 E75.29623
G1 X62.747 Y63.864 E75.43669
G1 X62.747 Y66.469 E75.50303
G1 X49.939 Y66.469 E75.82918
G0 F1402.4 X48.897 Y66.469
G0 F7200 X48.897 Y66.269
G0 X49.084 Y66.269
G0 X49.657 Y65.454
G0 X49.912 Y65.454
;TYPE:SKIN
G1 F2400 E75.85572
G1 F831.1 X49.912 Y64.879 E75.87036
G1 X52.908 Y64.879 E75.94665
G1 X52.908 Y65.454 E75.96129
G1 X50.397 Y65.454 E76.02524
G0 F747.9 X49.912 Y65.454
G0 F7200 X50.186 Y65.035
G1 F2400 E76.03759
G1 F831.1 X50.447 Y65.296 E76.04699
G0 F7200 X50.681 Y65.035
G1 F831.1 X50.942 Y65.296 E76.05639
G0 F7200 X51.176 Y65.035
G1 F831.1 X51.437 Y65.296 E76.06579
G0 F7200 X51.671 Y65.035
G1 F831.1 X51.932 Y65.296 E76.07518
G0 F7200 X52.166 Y65.035
G1 F831.1 X52.427 Y65.296 E76.08458
G0 F7200 X52.661 Y65.035
G1 F831.1 X52.75 Y65.125 E76.08781
G0 F7200 X53.163 Y65.125
G0 X53.808 Y64.045
G0 X57.346 Y64.045
G0 X58.246 Y64.624
G0 X58.246 Y64.879
G1 F831.1 X61.732 Y64.879 E76.17658
G1 X61.732 Y65.454 E76.19122
G1 X58.246 Y65.454 E76.27999
G1 X58.246 Y65.221 E76.28592
G0 F747.9 X58.246 Y64.879
G0 F7200 X58.6 Y65.035
G1 F2400 E76.29463
G1 F831.1 X58.861 Y65.296 E76.30403
G0 F7200 X59.095 Y65.035
G1 F831.1 X59.356 Y65.296 E76.31343
G0 F7200 X59.59 Y65.035
G1 F831.1 X59.851 Y65.296 E76.32283
G0 F7200 X60.085 Y65.035
G1 F831.1 X60.346 Y65.296 E76.33223
G0 F7200 X60.58 Y65.035
G1 F831.1 X60.841 Y65.296 E76.34163
G0 F7200 X61.075 Y65.035
G1 F831.1 X61.336 Y65.296 E76.35103
G0 F7200 X61.336 Y65.959
;MESH:NONMESH
G0 F600 X61.336 Y65.959 Z1.62
G0 F7200 X49.572 Y65.794
;TIME_ELAPSED:113.111820
;LAYER:3
;TYPE:WALL-INNER
;MESH:alarm door.stl
G1 F2087.4 X49.572 Y64.539 E76.38299
G1 X53.248 Y64.539 E76.47659
G1 X53.248 Y65.794 E76.50855
G1 X50.207 Y65.794 E76.58599
G0 F1878.7 X49.572 Y65.794
G0 F7200 X57.346 Y65.839
G0 X57.906 Y65.794
G1 F2400 E76.60216
G1 F2087.4 X57.906 Y64.539 E76.63412
G1 X62.072 Y64.539 E76.74021
G1 X62.072 Y65.794 E76.77216
G1 X58.614 Y65.794 E76.86022
G0 F1878.7 X57.906 Y65.794
G0 F7200 X53.598 Y66.049
G1 F2400 E76.87825
G1 F2087.4 X57.556 Y66.049 E76.97904
G1 X57.556 Y64.189 E77.0264
G1 X62.422 Y64.189 E77.15032
G1 X62.422 Y66.144 E77.2001
G1 X57.556 Y66.144 E77.32401
G1 X53.598 Y66.144 E77.35137
G1 X49.222 Y66.144 E77.4628
G1 X49.222 Y64.189 E77.51259
G1 X53.598 Y64.189 E77.62402
G1 X53.598 Y65.444 E77.65598
G0 F1878.7 X53.598 Y66.049
G0 F7200 X53.923 Y65.724
;TYPE:WALL-OUTER
G1 F2400 E77.67139
G1 F1565.6 X57.231 Y65.724 E77.75562
G1 X57.231 Y64.16 E77.79545
G1 X53.923 Y64.16 E77.87969
G1 X53.923 Y65.249 E77.90742
G0 F1409 X53.923 Y65.724
G0 F7200 X54.123 Y65.724
G0 X54.123 Y65.911
G0 X49.054 Y66.312
G0 X48.897 Y66.469
G1 F2400 E77.91951
G1 F1565.6 X48.897 Y63.864 E77.98585
G1 X53.923 Y63.864 E78.11384
G1 X57.231 Y63.864 E78.18508
G1 X62.747 Y63.864 E78.32554
G1 X62.747 Y66.469 E78.39188
G1 X49.939 Y66.469 E78.71803
G0 F1409 X48.897 Y66.469
G0 F7200 X48.897 Y66.269
G0 X49.084 Y66.269
G0 X49.657 Y65.454
G0 X49.912 Y65.454
;TYPE:SKIN
G1 F2400 E78.74456
G1 F835 X49.912 Y64.879 E78.75921
G1 X52.908 Y64.879 E78.8355
G1 X52.908 Y65.454 E78.85014
G1 X50.397 Y65.454 E78.91408
G0 F751.5 X49.912 Y65.454
G0 F7200 X50.069 Y65.259
G1 F2400 E78.92643
G1 F835 X50.294 Y65.034 E78.93454
G0 F7200 X50.527 Y65.296
G1 F835 X50.789 Y65.034 E78.94397
G0 F7200 X51.022 Y65.296
G1 F835 X51.284 Y65.034 E78.95341
G0 F7200 X51.517 Y65.296
G1 F835 X51.779 Y65.034 E78.96284
G0 F7200 X52.012 Y65.296
G1 F835 X52.274 Y65.034 E78.97228
G0 F7200 X52.507 Y65.296
G1 F835 X52.75 Y65.053 E78.98103
G0 F7200 X53.163 Y65.053
G0 X53.808 Y64.045
G0 X57.346 Y64.045
G0 X58.246 Y64.624
G0 X58.246 Y64.879
G1 F835 X61.732 Y64.879 E79.0698
G1 X61.732 Y65.454 E79.08444
G1 X58.246 Y65.454 E79.17321
G1 X58.246 Y65.221 E79.17914
G0 F751.5 X58.246 Y64.879
G0 F7200 X58.447 Y65.296
G1 F2400 E79.18785
G1 F835 X58.708 Y65.035 E79.19725
G0 F7200 X58.942 Y65.296
G1 F835 X59.203 Y65.035 E79.20665
G0 F7200 X59.437 Y65.296
G1 F835 X59.698 Y65.035 E79.21605
G0 F7200 X59.932 Y65.296
G1 F835 X60.193 Y65.035 E79.22545
G0 F7200 X60.427 Y65.296
G1 F835 X60.688 Y65.035 E79.23485
G0 F7200 X60.922 Y65.296
G1 F835 X61.183 Y65.035 E79.24425
G0 F7200 X61.417 Y65.296
G1 F835 X61.574 Y65.138 E79.24992
G0 F7200 X62.237 Y65.138
;MESH:NONMESH
G0 F600 X62.237 Y65.138 Z1.795
G0 F7200 X57.346 Y65.839
G0 X49.572 Y65.794
;TIME_ELAPSED:119.760653
;LAYER:4
;TYPE:WALL-INNER
;MESH:alarm door.stl
G1 F2077.6 X49.572 Y64.539 E79.28188
G1 X53.248 Y64.539 E79.37549
G1 X53.248 Y65.794 E79.40745
G1 X50.207 Y65.794 E79.48488
G0 F1869.9 X49.572 Y65.794
G0 F7200 X57.346 Y65.839
G0 X57.906 Y65.794
G1 F2400 E79.50106
G1 F2077.6 X57.906 Y64.539 E79.53301
G1 X62.072 Y64.539 E79.6391
G1 X62.072 Y65.794 E79.67106
G1 X58.614 Y65.794 E79.75912
G0 F1869.9 X57.906 Y65.794
G0 F7200 X53.598 Y66.049
G1 F2400 E79.77714
G1 F2077.6 X57.556 Y66.049 E79.87793
G1 X57.556 Y64.189 E79.9253
G1 X62.422 Y64.189 E80.04921
G1 X62.422 Y66.144 E80.09899
G1 X57.556 Y66.144 E80.22291
G1 X53.598 Y66.144 E80.25026
G1 X49.222 Y66.144 E80.3617
G1 X49.222 Y64.189 E80.41148
G1 X53.598 Y64.189 E80.52291
G1 X53.598 Y65.444 E80.55487
G0 F1869.9 X53.598 Y66.049
G0 F7200 X53.923 Y65.724
;TYPE:WALL-OUTER
G1 F2400 E80.57028
G1 F1558.2 X57.231 Y65.724 E80.65452
G1 X57.231 Y64.16 E80.69434
G1 X53.923 Y64.16 E80.77858
G1 X53.923 Y65.249 E80.80631
G0 F1402.4 X53.923 Y65.724
G0 F7200 X54.123 Y65.724
G0 X54.123 Y65.911
G0 X49.054 Y66.312
G0 X48.897 Y66.469
G1 F2400 E80.81841
G1 F1558.2 X48.897 Y63.864 E80.88474
G1 X53.923 Y63.864 E81.01273
G1 X57.231 Y63.864 E81.08397
G1 X62.747 Y63.864 E81.22443
G1 X62.747 Y66.469 E81.29077
G1 X49.939 Y66.469 E81.61692
G0 F1402.4 X48.897 Y66.469
G0 F7200 X48.897 Y66.269
G0 X49.084 Y66.269
G0 X49.657 Y65.454
G0 X49.912 Y65.454
;TYPE:SKIN
G1 F2400 E81.64346
G1 F831.1 X49.912 Y64.879 E81.6581
G1 X52.908 Y64.879 E81.73439
G1 X52.908 Y65.454 E81.74903
G1 X50.397 Y65.454 E81.81298
G0 F747.9 X49.912 Y65.454
G0 F7200 X50.186 Y65.035
G1 F2400 E81.82533
G1 F831.1 X50.447 Y65.296 E81.83473
G0 F7200 X50.681 Y65.035
G1 F831.1 X50.942 Y65.296 E81.84413
G0 F7200 X51.176 Y65.035
G1 F831.1 X51.437 Y65.296 E81.85352
G0 F7200 X51.671 Y65.035
G1 F831.1 X51.932 Y65.296 E81.86292
G0 F7200 X52.166 Y65.035
G1 F831.1 X52.427 Y65.296 E81.87232
G0 F7200 X52.661 Y65.035
G1 F831.1 X52.75 Y65.125 E81.87555
G0 F7200 X53.163 Y65.125
G0 X53.808 Y64.045
G0 X57.346 Y64.045
G0 X58.246 Y64.624
G0 X58.246 Y64.879
G1 F831.1 X61.732 Y64.879 E81.96432
G1 X61.732 Y65.454 E81.97896
G1 X58.246 Y65.454 E82.06773
G1 X58.246 Y65.221 E82.07366
G0 F747.9 X58.246 Y64.879
G0 F7200 X58.6 Y65.035
G1 F2400 E82.08237
G1 F831.1 X58.861 Y65.296 E82.09177
G0 F7200 X59.095 Y65.035
G1 F831.1 X59.356 Y65.296 E82.10117
G0 F7200 X59.59 Y65.035
G1 F831.1 X59.851 Y65.296 E82.11057
G0 F7200 X60.085 Y65.035
G1 F831.1 X60.346 Y65.296 E82.11997
G0 F7200 X60.58 Y65.035
G1 F831.1 X60.841 Y65.296 E82.12937
G0 F7200 X61.075 Y65.035
G1 F831.1 X61.336 Y65.296 E82.13877
G0 F7200 X61.336 Y65.959
;MESH:NONMESH
G0 F600 X61.336 Y65.959 Z1.97
G0 F7200 X49.572 Y65.794
;TIME_ELAPSED:126.367403
;LAYER:5
;TYPE:WALL-INNER
;MESH:alarm door.stl
G1 F2087.4 X49.572 Y64.539 E82.17073
G1 X53.248 Y64.539 E82.26433
G1 X53.248 Y65.794 E82.29629
G1 X50.207 Y65.794 E82.37373
G0 F1878.7 X49.572 Y65.794
G0 F7200 X57.346 Y65.839
G0 X57.906 Y65.794
G1 F2400 E82.3899
G1 F2087.4 X57.906 Y64.539 E82.42186
G1 X62.072 Y64.539 E82.52795
G1 X62.072 Y65.794 E82.5599
G1 X58.614 Y65.794 E82.64796
G0 F1878.7 X57.906 Y65.794
G0 F7200 X53.598 Y66.049
G1 F2400 E82.66599
G1 F2087.4 X57.556 Y66.049 E82.76678
G1 X57.556 Y64.189 E82.81414
G1 X62.422 Y64.189 E82.93806
G1 X62.422 Y66.144 E82.98784
G1 X57.556 Y66.144 E83.11175
G1 X53.598 Y66.144 E83.13911
G1 X49.222 Y66.144 E83.25054
G1 X49.222 Y64.189 E83.30033
G1 X53.598 Y64.189 E83.41176
G1 X53.598 Y65.444 E83.44372
G0 F1878.7 X53.598 Y66.049
G0 F7200 X53.923 Y65.724
;TYPE:WALL-OUTER
G1 F2400 E83.45912
G1 F1565.6 X57.231 Y65.724 E83.54336
G1 X57.231 Y64.16 E83.58319
G1 X53.923 Y64.16 E83.66743
G1 X53.923 Y65.249 E83.69516
G0 F1409 X53.923 Y65.724
G0 F7200 X54.123 Y65.724
G0 X54.123 Y65.911
G0 X49.054 Y66.312
G0 X48.897 Y66.469
G1 F2400 E83.70725
G1 F1565.6 X48.897 Y63.864 E83.77359
G1 X53.923 Y63.864 E83.90158
G1 X57.231 Y63.864 E83.97282
G1 X62.747 Y63.864 E84.11328
G1 X62.747 Y66.469 E84.17962
G1 X49.939 Y66.469 E84.50577
G0 F1409 X48.897 Y66.469
G0 F7200 X48.897 Y66.269
G0 X49.084 Y66.269
G0 X49.657 Y65.454
G0 X49.912 Y65.454
;TYPE:SKIN
G1 F2400 E84.5323
G1 F835 X49.912 Y64.879 E84.54695
G1 X52.908 Y64.879 E84.62324
G1 X52.908 Y65.454 E84.63788
G1 X50.397 Y65.454 E84.70182
G0 F751.5 X49.912 Y65.454
G0 F7200 X50.069 Y65.259
G1 F2400 E84.71417
G1 F835 X50.294 Y65.034 E84.72228
G0 F7200 X50.527 Y65.296
G1 F835 X50.789 Y65.034 E84.73171
G0 F7200 X51.022 Y65.296
G1 F835 X51.284 Y65.034 E84.74115
G0 F7200 X51.517 Y65.296
G1 F835 X51.779 Y65.034 E84.75058
G0 F7200 X52.012 Y65.296
G1 F835 X52.274 Y65.034 E84.76002
G0 F7200 X52.507 Y65.296
G1 F835 X52.75 Y65.053 E84.76877
G0 F7200 X53.163 Y65.053
G0 X53.808 Y64.045
G0 X57.346 Y64.045
G0 X58.246 Y64.624
G0 X58.246 Y64.879
G1 F835 X61.732 Y64.879 E84.85754
G1 X61.732 Y65.454 E84.87218
G1 X58.246 Y65.454 E84.96095
G1 X58.246 Y65.221 E84.96688
G0 F751.5 X58.246 Y64.879
G0 F7200 X58.447 Y65.296
G1 F2400 E84.97559
G1 F835 X58.708 Y65.035 E84.98499
G0 F7200 X58.942 Y65.296
G1 F835 X59.203 Y65.035 E84.99439
G0 F7200 X59.437 Y65.296
G1 F835 X59.698 Y65.035 E85.00379
G0 F7200 X59.932 Y65.296
G1 F835 X60.193 Y65.035 E85.01319
G0 F7200 X60.427 Y65.296
G1 F835 X60.688 Y65.035 E85.02259
G0 F7200 X60.922 Y65.296
G1 F835 X61.183 Y65.035 E85.03199
G0 F7200 X61.417 Y65.296
G1 F835 X61.574 Y65.138 E85.03766
G0 F7200 X62.237 Y65.138
;MESH:NONMESH
G0 F600 X62.237 Y65.138 Z2.145
G0 F7200 X57.346 Y65.839
G0 X49.572 Y65.794
;TIME_ELAPSED:133.016235
;LAYER:6
;TYPE:WALL-INNER
;MESH:alarm door.stl
G1 F2077.6 X49.572 Y64.539 E85.06962
G1 X53.248 Y64.539 E85.16323
G1 X53.248 Y65.794 E85.19519
G1 X50.207 Y65.794 E85.27262
G0 F1869.9 X49.572 Y65.794
G0 F7200 X57.346 Y65.839
G0 X57.906 Y65.794
G1 F2400 E85.28879
G1 F2077.6 X57.906 Y64.539 E85.32075
G1 X62.072 Y64.539 E85.42684
G1 X62.072 Y65.794 E85.4588
G1 X58.614 Y65.794 E85.54685
G0 F1869.9 X57.906 Y65.794
G0 F7200 X53.598 Y66.049
G1 F2400 E85.56488
G1 F2077.6 X57.556 Y66.049 E85.66567
G1 X57.556 Y64.189 E85.71304
G1 X62.422 Y64.189 E85.83695
G1 X62.422 Y66.144 E85.88673
G1 X57.556 Y66.144 E86.01065
G1 X53.598 Y66.144 E86.038
G1 X49.222 Y66.144 E86.14944
G1 X49.222 Y64.189 E86.19922
G1 X53.598 Y64.189 E86.31065
G1 X53.598 Y65.444 E86.34261
G0 F1869.9 X53.598 Y66.049
G0 F7200 X53.923 Y65.724
;TYPE:WALL-OUTER
G1 F2400 E86.35802
G1 F1558.2 X57.231 Y65.724 E86.44226
G1 X57.231 Y64.16 E86.48208
G1 X53.923 Y64.16 E86.56632
G1 X53.923 Y65.249 E86.59405
G0 F1402.4 X53.923 Y65.724
G0 F7200 X54.123 Y65.724
G0 X54.123 Y65.911
G0 X49.054 Y66.312
G0 X48.897 Y66.469
G1 F2400 E86.60615
G1 F1558.2 X48.897 Y63.864 E86.67248
G1 X53.923 Y63.864 E86.80047
G1 X57.231 Y63.864 E86.87171
G1 X62.747 Y63.864 E87.01217
G1 X62.747 Y66.469 E87.07851
G1 X49.939 Y66.469 E87.40466
G0 F1402.4 X48.897 Y66.469
G0 F7200 X48.897 Y66.269
G0 X49.084 Y66.269
G0 X49.657 Y65.454
G0 X49.912 Y65.454
;TYPE:SKIN
G1 F2400 E87.4312
G1 F831.1 X49.912 Y64.879 E87.44584
G1 X52.908 Y64.879 E87.52213
G1 X52.908 Y65.454 E87.53677
G1 X50.397 Y65.454 E87.60072
G0 F747.9 X49.912 Y65.454
G0 F7200 X50.186 Y65.035
G1 F2400 E87.61307
G1 F831.1 X50.447 Y65.296 E87.62247
G0 F7200 X50.681 Y65.035
G1 F831.1 X50.942 Y65.296 E87.63187
G0 F7200 X51.176 Y65.035
G1 F831.1 X51.437 Y65.296 E87.64126
G0 F7200 X51.671 Y65.035
G1 F831.1 X51.932 Y65.296 E87.65066
G0 F7200 X52.166 Y65.035
G1 F831.1 X52.427 Y65.296 E87.66006
G0 F7200 X52.661 Y65.035
G1 F831.1 X52.75 Y65.125 E87.66329
G0 F7200 X53.163 Y65.125
G0 X53.808 Y64.045
G0 X57.346 Y64.045
G0 X58.246 Y64.624
G0 X58.246 Y64.879
G1 F831.1 X61.732 Y64.879 E87.75206
G1 X61.732 Y65.454 E87.7667
G1 X58.246 Y65.454 E87.85547
G1 X58.246 Y65.221 E87.8614
G0 F747.9 X58.246 Y64.879
G0 F7200 X58.6 Y65.035
G1 F2400 E87.87011
G1 F831.1 X58.861 Y65.296 E87.87951
G0 F7200 X59.095 Y65.035
G1 F831.1 X59.356 Y65.296 E87.88891
G0 F7200 X59.59 Y65.035
G1 F831.1 X59.851 Y65.296 E87.89831
G0 F7200 X60.085 Y65.035
G1 F831.1 X60.346 Y65.296 E87.90771
G0 F7200 X60.58 Y65.035
G1 F831.1 X60.841 Y65.296 E87.91711
G0 F7200 X61.075 Y65.035
G1 F831.1 X61.336 Y65.296 E87.92651
G0 F7200 X61.336 Y65.959
;TIME_ELAPSED:139.239908
G1 F2400 E85.42651
M140 S0
M141 S0
M107
G0 X0 Y120;(Stick out the part)
M190 S0;(Turn off heat bed, don't wait.)
G92 E10;(Set extruder to 10)
G1 E7 F200;(retract 3mm)
M104 S0;(Turn off nozzle, don't wait)
G4 S300;(Delay 5 minutes)
M107;(Turn off part fan)
M84;(Turn off stepper motors.)
M82 ;absolute extrusion mode
M104 S0
;End of Gcode
;SETTING_3 {"global_quality": "[general]\\nversion = 4\\nname = Normal #2\\ndefi
;SETTING_3 nition = monoprice_select_mini_v2\\n\\n[metadata]\\ntype = quality_ch
;SETTING_3 anges\\nquality_type = fast\\nsetting_version = 8\\n\\n[values]\\nadh
;SETTING_3 esion_type = raft\\nsupport_enable = True\\n\\n", "extruder_quality":
;SETTING_3  ["[general]\\nversion = 4\\nname = Normal #2\\ndefinition = monopric
;SETTING_3 e_select_mini_v2\\n\\n[metadata]\\ntype = quality_changes\\nquality_t
;SETTING_3 ype = fast\\nsetting_version = 8\\nposition = 0\\n\\n[values]\\ninfil
;SETTING_3 l_sparse_density = 100\\n\\n"]}
