;FLAVOR:Marlin
;TIME:279
;Filament used: 0.184579m
;Layer height: 0.175
;MINX:48.518
;MINY:45.999
;MINZ:0.306
;MAXX:71.495
;MAXY:76
;MAXZ:2.32
;Generated with Cura_SteamEngine master
M140 S65
M105
M190 S65
M104 S205
M105
M109 S205
M82 ;absolute extrusion mode
G21;(metric values)
G90;(absolute positioning)
M82;(set extruder to absolute mode)
M107;(start with the fan off)
G28;(Home the printer)
G92 E0;(Reset the extruder to 0)
G0 Z5 E5 F500;(Move up and prime the nozzle)
G0 X-1 Z0;(Move outside the printable area)
G1 Y60 E8 F500;(Draw a priming/wiping line to the rear)
G1 X-1;(Move a little closer to the print area)
G1 Y10 E16 F500;(draw more priming/wiping)
G1 E15 F250;(Small retract)
G92 E0;(Zero the extruder)
M141 S28
G92 E0
G92 E0
G1 F2400 E-2.5
;LAYER_COUNT:8
;LAYER:-5
M107
G0 F7200 X50.189 Y47.579 Z0.306
;TYPE:SUPPORT-INTERFACE
G1 F2400 E0
G1 F1125 X50.42 Y47.363 E0.03219
G1 X50.624 Y47.196 E0.05902
G1 X50.873 Y47.017 E0.09023
G1 X51.128 Y46.856 E0.12092
G1 X51.365 Y46.727 E0.14839
G1 X51.643 Y46.598 E0.17958
G1 X51.9 Y46.499 E0.20761
G1 X52.185 Y46.408 E0.23806
G1 X52.44 Y46.343 E0.26484
G1 X52.774 Y46.287 E0.29931
G1 X53.352 Y46.234 E0.35838
G1 X53.563 Y46.225 E0.37987
G1 X57.392 Y46.229 E0.76957
G1 X57.769 Y46.253 E0.80802
G1 X58.064 Y46.29 E0.83828
G1 X58.367 Y46.348 E0.86968
G1 X58.625 Y46.415 E0.89681
G1 X59.283 Y46.543 E0.96503
G1 X59.963 Y46.587 E1.03438
G1 X60.648 Y46.545 E1.10423
G1 X61.735 Y46.316 E1.21729
G1 X62.055 Y46.268 E1.25022
G1 X62.523 Y46.232 E1.298
G1 X62.715 Y46.225 E1.31755
G1 X66.623 Y46.229 E1.71529
G1 X67 Y46.253 E1.75374
G1 X67.298 Y46.29 E1.7843
G1 X67.582 Y46.345 E1.81374
G1 X67.873 Y46.421 E1.84435
G1 X68.131 Y46.505 E1.87197
G1 X68.41 Y46.616 E1.90253
G1 X68.668 Y46.738 E1.93157
G1 X68.926 Y46.881 E1.96159
G1 X69.165 Y47.033 E1.99042
G1 X69.411 Y47.215 E2.02157
G1 X69.602 Y47.374 E2.04686
G1 X69.845 Y47.609 E2.08126
G1 X70.202 Y48.007 E2.13568
G1 X70.307 Y48.136 E2.15261
G1 X70.372 Y48.228 E2.16407
G1 X70.587 Y48.554 E2.20382
G1 X70.736 Y48.814 E2.23432
G1 X70.86 Y49.068 E2.26308
G1 X70.973 Y49.337 E2.29278
G1 X71.067 Y49.613 E2.32245
G1 X71.141 Y49.883 E2.35095
G1 X71.201 Y50.176 E2.38138
G1 X71.242 Y50.461 E2.41069
G1 X71.265 Y50.764 E2.44162
G1 X71.27 Y51.026 E2.46829
G1 X71.256 Y51.31 E2.49723
G1 X71.218 Y51.63 E2.53002
G1 X71.122 Y52.124 E2.58124
G1 X71.079 Y52.308 E2.60047
G1 X70.695 Y53.677 E2.74518
G1 X70.557 Y54.333 E2.81341
G1 X70.499 Y55.013 E2.88287
G1 X70.528 Y55.696 E2.95244
G1 X70.645 Y56.372 E3.02227
G1 X70.906 Y57.18 E3.10868
G1 X70.973 Y57.339 E3.12624
G1 X71.067 Y57.613 E3.15573
G1 X71.141 Y57.883 E3.18422
G1 X71.201 Y58.176 E3.21466
G1 X71.242 Y58.461 E3.24396
G1 X71.265 Y58.764 E3.27489
G1 X71.27 Y59.026 E3.30156
G1 X71.256 Y59.31 E3.3305
G1 X71.218 Y59.63 E3.3633
G1 X71.122 Y60.124 E3.41452
G1 X71.079 Y60.308 E3.43375
G1 X70.547 Y62.208 E3.63456
G1 X70.483 Y62.414 E3.65651
G1 X70.425 Y62.582 E3.6746
G1 X70.247 Y63.228 E3.7428
G1 X70.149 Y63.904 E3.81232
G1 X70.139 Y64.587 E3.88184
G1 X70.213 Y65.265 E3.95125
G1 X70.374 Y65.932 E4.02109
G1 X70.681 Y66.704 E4.10564
G1 X70.866 Y67.08 E4.14829
G1 X70.973 Y67.337 E4.17662
G1 X71.067 Y67.613 E4.2063
G1 X71.141 Y67.883 E4.23479
G1 X71.201 Y68.176 E4.26523
G1 X71.242 Y68.461 E4.29454
G1 X71.265 Y68.764 E4.32546
G1 X71.27 Y69.026 E4.35213
G1 X71.256 Y69.31 E4.38107
G1 X71.218 Y69.63 E4.41387
G1 X71.122 Y70.124 E4.46509
G1 X71.079 Y70.308 E4.48432
G1 X70.547 Y72.208 E4.68513
G1 X70.49 Y72.392 E4.70474
G1 X70.37 Y72.738 E4.74201
G1 X70.253 Y73.02 E4.77308
G1 X70.127 Y73.272 E4.80176
G1 X69.969 Y73.544 E4.83377
G1 X69.827 Y73.758 E4.85991
G1 X69.633 Y74.012 E4.89244
G1 X69.469 Y74.201 E4.91791
G1 X69.237 Y74.435 E4.95144
G1 X68.797 Y74.816 E5.01068
G1 X68.732 Y74.862 E5.01878
G1 X68.395 Y75.084 E5.05986
G1 X68.135 Y75.233 E5.09035
G1 X67.881 Y75.357 E5.11912
G1 X67.612 Y75.47 E5.14882
G1 X67.336 Y75.564 E5.17849
G1 X67.066 Y75.638 E5.20698
G1 X66.78 Y75.697 E5.23671
G1 X66.477 Y75.739 E5.26784
G1 X66.077 Y75.767 E5.30865
G1 X65.869 Y75.775 E5.32983
G1 X54.073 Y75.771 E6.53038
G1 X53.696 Y75.747 E6.56883
G1 X53.398 Y75.71 E6.59939
G1 X53.114 Y75.655 E6.62883
G1 X52.823 Y75.579 E6.65944
G1 X52.563 Y75.494 E6.68728
G1 X52.286 Y75.384 E6.71762
G1 X52.027 Y75.261 E6.7468
G1 X51.772 Y75.12 E6.77646
G1 X51.363 Y74.854 E6.82611
G1 X51.265 Y74.778 E6.83873
G1 X50.993 Y74.551 E6.87479
G1 X50.782 Y74.352 E6.90431
G1 X50.57 Y74.127 E6.93577
G1 X50.399 Y73.918 E6.96326
G1 X50.221 Y73.671 E6.99424
G1 X50.061 Y73.417 E7.02479
G1 X49.934 Y73.183 E7.05189
G1 X49.804 Y72.904 E7.08322
G1 X49.686 Y72.603 E7.11612
G1 X49.627 Y72.438 E7.13396
G1 X48.943 Y70.327 E7.3598
G1 X48.853 Y69.978 E7.39649
G1 X48.799 Y69.694 E7.42591
G1 X48.759 Y69.379 E7.45822
G1 X48.743 Y69.12 E7.48463
G1 X48.743 Y68.823 E7.51486
G1 X48.761 Y68.54 E7.54372
G1 X48.799 Y68.242 E7.5743
G1 X48.856 Y67.95 E7.60458
G1 X48.927 Y67.676 E7.63339
G1 X49.021 Y67.387 E7.66432
G1 X49.106 Y67.177 E7.68737
G1 X49.539 Y66.299 E7.78701
G1 X49.523 Y66.291 E7.78883
G1 X49.698 Y65.829 E7.83911
G1 X49.857 Y65.165 E7.9086
G1 X49.931 Y64.486 E7.97811
G1 X49.919 Y63.804 E8.04754
G1 X49.821 Y63.126 E8.11726
G1 X49.766 Y62.936 E8.13739
G1 X49.787 Y62.93 E8.13961
G1 X48.943 Y60.327 E8.41811
G1 X48.853 Y59.978 E8.45479
G1 X48.799 Y59.694 E8.48422
G1 X48.759 Y59.379 E8.51653
G1 X48.743 Y59.12 E8.54294
G1 X48.743 Y58.823 E8.57317
G1 X48.761 Y58.54 E8.60203
G1 X48.799 Y58.242 E8.63261
G1 X48.856 Y57.95 E8.66289
G1 X48.927 Y57.676 E8.69169
G1 X49.021 Y57.387 E8.72262
G1 X49.162 Y57.036 E8.76112
G1 X49.372 Y56.399 E8.82939
G1 X49.501 Y55.729 E8.89883
G1 X49.545 Y55.048 E8.96828
G1 X49.503 Y54.366 E9.03782
G1 X49.375 Y53.701 E9.10675
G1 X49.279 Y53.372 E9.14163
G1 X48.943 Y52.327 E9.25335
G1 X48.853 Y51.978 E9.29003
G1 X48.799 Y51.694 E9.31945
G1 X48.759 Y51.379 E9.35177
G1 X48.743 Y51.12 E9.37818
G1 X48.743 Y50.823 E9.40841
G1 X48.761 Y50.54 E9.43727
G1 X48.799 Y50.242 E9.46784
G1 X48.856 Y49.95 E9.49812
G1 X48.927 Y49.676 E9.52693
G1 X49.021 Y49.387 E9.55786
G1 X49.106 Y49.177 E9.58092
G1 X49.269 Y48.846 E9.61847
G1 X49.578 Y48.327 E9.67994
G1 X49.679 Y48.173 E9.69869
G1 X49.765 Y48.063 E9.7129
G1 X50.001 Y47.778 E9.75056
G1 X50.01 Y47.769 E9.75185
G0 F1012.5 X50.189 Y47.579
G0 F7200 X49.6 Y48.293
G1 F2400 E9.77842
G1 F1125 X49.6 Y62.353 E11.20939
G0 F7200 X49.6 Y66.087
G1 F1125 X49.6 Y72.354 E11.84722
G0 F7200 X51.2 Y74.723
G1 F1125 X51.2 Y46.816 E14.68748
G0 F7200 X52.8 Y46.284
G1 F1125 X52.8 Y75.571 E17.66819
G0 F7200 X54.4 Y75.771
G1 F1125 X54.4 Y46.226 E20.67517
G0 F7200 X56 Y46.228
G1 F1125 X56 Y75.771 E23.68193
G0 F7200 X57.6 Y75.772
G1 F1125 X57.6 Y46.243 E26.68728
G0 F7200 X59.2 Y46.527
G1 F1125 X59.2 Y75.772 E29.66372
G0 F7200 X60.8 Y75.773
G1 F1125 X60.8 Y46.512 E32.64179
G0 F7200 X62.4 Y46.241
G1 F1125 X62.4 Y75.773 E35.64744
G0 F7200 X64 Y75.774
G1 F1125 X64 Y46.227 E38.65461
G0 F7200 X65.6 Y46.228
G1 F1125 X65.6 Y75.774 E41.66169
G0 F7200 X67.2 Y75.602
G1 F1125 X67.2 Y46.278 E44.64616
G0 F7200 X68.8 Y46.812
G1 F1125 X68.8 Y74.814 E47.4961
G0 F7200 X70.4 Y72.652
M104 S200
G1 F1125 X70.4 Y65.998 E48.17331
G0 F7200 X70.4 Y62.673
G1 F1125 X70.4 Y48.271 E49.63909
G0 F600 X70.4 Y48.271 Z0.525
G0 F7200 X71.014 Y49.307
;TIME_ELAPSED:54.302851
;LAYER:-4
M140 S60
;TYPE:SUPPORT
G1 F1125 X70.905 Y49.047 E49.65706
G1 X70.783 Y48.798 E49.67473
G1 X70.622 Y48.518 E49.69532
G1 X70.412 Y48.199 E49.71966
G1 X70.342 Y48.1 E49.72739
G1 X70.228 Y47.961 E49.73885
G1 X69.881 Y47.573 E49.77202
G1 X69.635 Y47.337 E49.79375
G1 X69.437 Y47.171 E49.81022
G1 X69.193 Y46.992 E49.8295
G1 X68.948 Y46.837 E49.84798
G1 X68.697 Y46.698 E49.86627
G1 X68.416 Y46.563 E49.88614
G1 X68.169 Y46.465 E49.90307
G1 X68.071 Y46.433 E49.90964
G1 X71.05 Y49.413 E50.1782
G0 F7200 X68.071 Y46.433
G1 F1125 X67.884 Y46.372 E50.19074
G1 X67.587 Y46.294 E50.21031
G1 X67.296 Y46.239 E50.22918
G1 X67.007 Y46.203 E50.24774
G1 X66.624 Y46.179 E50.2722
G1 X66.543 Y46.179 E50.27736
G1 X71.318 Y50.954 E50.70776
G1 X71.319 Y51.028 E50.71247
G1 X71.304 Y51.318 E50.73098
G1 X71.266 Y51.64 E50.75165
G1 X71.18 Y52.088 E50.78072
G1 X65.269 Y46.177 E51.31351
G1 X63.995 Y46.176 E51.3947
G1 X70.91 Y53.091 E52.01798
G1 X70.743 Y53.689 E52.05756
G1 X70.654 Y54.108 E52.08486
G1 X62.721 Y46.175 E52.79989
G1 X62.712 Y46.174 E52.80047
G1 X62.517 Y46.181 E52.81291
G1 X62.044 Y46.217 E52.84314
G1 X61.728 Y46.265 E52.86351
G1 X61.572 Y46.298 E52.87368
G1 X70.56 Y55.286 E53.6838
G1 X70.577 Y55.689 E53.70951
G1 X70.692 Y56.36 E53.7529
G1 X70.851 Y56.85 E53.78573
G1 X60.504 Y46.503 E54.71836
G1 X59.961 Y46.536 E54.75303
G1 X59.288 Y46.492 E54.79601
G1 X59.205 Y46.477 E54.80139
G1 X71.3 Y58.572 E55.89157
G1 X71.314 Y58.759 E55.90352
G1 X71.318 Y59.027 E55.9206
G1 X71.305 Y59.318 E55.93917
G1 X71.266 Y59.64 E55.95984
G1 X71.238 Y59.783 E55.96913
G1 X57.65 Y46.195 E57.19387
G1 X57.393 Y46.179 E57.21029
G1 X56.36 Y46.178 E57.27612
G1 X70.99 Y60.808 E58.59479
G1 X70.712 Y61.802 E58.66057
G1 X55.086 Y46.176 E60.06902
G1 X53.812 Y46.176 E60.15022
G1 X70.42 Y62.784 E61.64717
G1 X70.294 Y63.237 E61.67714
G1 X70.207 Y63.843 E61.71616
G1 X52.625 Y46.261 E63.3009
G1 X52.416 Y46.297 E63.31442
G1 X52.171 Y46.357 E63.33049
G1 X51.886 Y46.449 E63.34958
G1 X51.637 Y46.546 E63.36661
G1 X70.252 Y65.161 E65.04447
G1 X70.262 Y65.256 E65.05056
G1 X70.421 Y65.917 E65.09389
G1 X70.726 Y66.682 E65.14638
G1 X70.905 Y67.047 E65.17229
G1 X70.934 Y67.116 E65.17706
G1 X50.814 Y46.996 E66.99056
G1 X50.611 Y47.142 E67.0065
G1 X50.383 Y47.328 E67.02525
G1 X50.162 Y47.534 E67.04451
G1 X50.121 Y47.576 E67.04825
G1 X71.315 Y68.769 E68.95852
G1 X71.319 Y69.028 E68.97503
G1 X71.305 Y69.318 E68.99353
G1 X71.266 Y69.64 E69.0142
G1 X71.209 Y69.936 E69.03341
G1 X49.549 Y48.277 E70.98568
G1 X49.534 Y48.301 E70.98749
G1 X49.225 Y48.82 E71.02598
G1 X49.09 Y49.09 E71.04522
G1 X70.951 Y70.951 E73.01565
G1 X70.672 Y71.945 E73.08146
G1 X48.784 Y50.056 E75.05436
G1 X48.747 Y50.242 E75.06645
G1 X48.712 Y50.524 E75.08456
G1 X48.692 Y50.811 E75.1029
G1 X48.692 Y51.128 E75.1231
G1 X48.699 Y51.245 E75.13057
G1 X70.356 Y72.902 E77.08262
G1 X70.296 Y73.044 E77.09244
G1 X70.177 Y73.283 E77.10946
G1 X70.017 Y73.559 E77.12979
G1 X69.906 Y73.725 E77.14252
G1 X49.071 Y52.889 E79.02052
G1 X49.23 Y53.385 E79.05371
G1 X49.327 Y53.712 E79.07545
G1 X49.452 Y54.371 E79.1182
G1 X49.464 Y54.555 E79.12995
G1 X69.326 Y74.417 E80.92021
G1 X69.278 Y74.464 E80.92449
G1 X68.821 Y74.859 E80.96299
G1 X68.751 Y74.908 E80.96843
G1 X68.626 Y74.99 E80.97796
G1 X49.435 Y55.799 E82.70773
G1 X49.322 Y56.385 E82.74577
G1 X49.18 Y56.817 E82.77475
G1 X67.805 Y75.441 E84.45346
G1 X67.636 Y75.512 E84.46514
G1 X67.349 Y75.61 E84.48447
G1 X67.072 Y75.686 E84.50278
G1 X66.827 Y75.736 E84.51872
G1 X48.852 Y57.762 E86.13884
G1 X48.805 Y57.941 E86.15064
G1 X48.747 Y58.242 E86.17017
G1 X48.712 Y58.524 E86.18828
G1 X48.692 Y58.811 E86.20662
G1 X48.692 Y58.875 E86.2107
G1 X65.641 Y75.823 E87.73834
G1 X64.368 Y75.823 E87.81948
G1 X48.899 Y60.354 E89.21377
G1 X49.509 Y62.237 E89.33992
G1 X63.095 Y75.823 E90.56449
G1 X61.821 Y75.822 E90.64569
G1 X49.87 Y63.871 E91.72289
G1 X49.881 Y64.483 E91.7619
G1 X49.814 Y65.088 E91.80069
G1 X60.548 Y75.822 E92.7682
G1 X59.275 Y75.821 E92.84933
G1 X49.544 Y66.09 E93.72643
G1 X49.459 Y66.314 E93.7417
G1 X49.472 Y66.32 E93.74261
G1 X49.15 Y66.97 E93.78885
G1 X58.001 Y75.82 E94.58658
G1 X56.729 Y75.82 E94.66765
G1 X48.815 Y67.906 E95.38098
G1 X48.806 Y67.942 E95.38334
G1 X48.747 Y68.242 E95.40283
G1 X48.712 Y68.524 E95.42094
G1 X48.692 Y68.811 E95.43927
G1 X48.692 Y69.057 E95.45495
G1 X55.455 Y75.82 E96.06453
G1 X54.182 Y75.82 E96.14567
G1 X48.986 Y70.624 E96.61401
G1 X49.579 Y72.454 E96.73661
G1 X49.599 Y72.509 E96.74034
G1 X52.67 Y75.58 E97.01715
G1 X52.526 Y75.533 E97.0268
G1 X52.279 Y75.435 E97.04374
G1 X51.997 Y75.301 E97.06363
G1 X51.749 Y75.163 E97.08172
G1 X51.34 Y74.898 E97.11278
G1 X51.234 Y74.816 E97.12133
G1 X50.961 Y74.589 E97.14395
G1 X50.729 Y74.371 E97.16424
G1 X50.549 Y74.178 E97.18106
G1 X50.35 Y73.937 E97.20098
G1 X50.184 Y73.705 E97.21917
G1 X50.019 Y73.442 E97.23895
G1 X49.882 Y73.191 E97.25718
G1 X49.765 Y72.94 E97.27483
G1 X49.635 Y72.609 E97.29749
G0 F600 X49.635 Y72.609 Z0.7
G0 F7200 X53.544 Y75.95
;TIME_ELAPSED:94.765775
;LAYER:-3
;TYPE:SUPPORT-INTERFACE
G1 F1500 X66.503 Y75.95 E97.62749
G1 X66.08 Y75.992 E97.63832
G1 X54.191 Y76 E97.94107
G1 X53.672 Y75.97 E97.95431
G0 F7200 X66.503 Y75.95
G1 F1500 X66.826 Y75.918 E97.96257
G1 X67.392 Y75.782 E97.9774
G1 X67.873 Y75.6 E97.99049
G1 X52.241 Y75.6 E98.38856
G1 X51.915 Y75.457 E98.39762
G1 X51.571 Y75.25 E98.40785
G1 X68.549 Y75.25 E98.84019
G1 X69.042 Y74.905 E98.85551
G1 X69.047 Y74.9 E98.85569
G1 X51.07 Y74.9 E99.31347
G1 X50.839 Y74.716 E99.32099
G1 X50.673 Y74.55 E99.32697
G1 X69.424 Y74.55 E99.80446
G1 X69.626 Y74.363 E99.81147
G1 X69.758 Y74.2 E99.81681
G1 X50.342 Y74.2 E100.31123
G1 X50.073 Y73.85 E100.32248
G1 X70.032 Y73.85 E100.83073
G1 X70.249 Y73.5 E100.84121
G1 X49.859 Y73.5 E101.36044
G1 X49.724 Y73.268 E101.36728
G1 X49.673 Y73.15 E101.37055
G1 X70.429 Y73.15 E101.8991
G1 X70.581 Y72.818 E101.90839
G1 X70.586 Y72.8 E101.90887
G1 X49.524 Y72.8 E102.44521
G1 X49.471 Y72.674 E102.44869
G1 X49.397 Y72.45 E102.4547
G1 X70.703 Y72.45 E102.99725
G1 X70.76 Y72.28 E103.00182
G1 X70.809 Y72.1 E103.00657
G1 X49.282 Y72.1 E103.55475
G1 X49.167 Y71.75 E103.56413
G1 X70.906 Y71.75 E104.11771
G1 X71.003 Y71.4 E104.12696
G1 X49.052 Y71.4 E104.68593
G1 X48.937 Y71.05 E104.69532
G1 X71.1 Y71.05 E105.25969
G1 X71.196 Y70.7 E105.26893
G1 X48.821 Y70.7 E105.83871
G1 X48.773 Y70.551 E105.8427
G1 X48.718 Y70.35 E105.848
G1 X71.293 Y70.35 E106.42287
G1 X71.34 Y70.182 E106.42731
G1 X71.375 Y70 E106.43203
G1 X48.627 Y70 E107.0113
G1 X48.573 Y69.65 E107.02032
G1 X71.44 Y69.65 E107.60263
G1 X71.471 Y69.3 E107.61157
G1 X48.531 Y69.3 E108.19574
G1 X48.52 Y68.95 E108.20465
G1 X71.491 Y68.95 E108.7896
G1 X71.475 Y68.6 E108.79853
G1 X48.539 Y68.6 E109.38259
G1 X48.573 Y68.25 E109.39154
G1 X71.434 Y68.25 E109.97369
G1 X71.373 Y67.9 E109.98274
G1 X48.645 Y67.9 E110.5615
G1 X48.707 Y67.621 E110.56878
G1 X48.733 Y67.55 E110.57071
G1 X71.273 Y67.55 E111.14468
G1 X71.18 Y67.251 E111.15266
G1 X71.157 Y67.2 E111.15408
G1 X48.858 Y67.2 E111.72192
G1 X48.899 Y67.085 E111.72503
G1 X49.015 Y66.85 E111.7317
G1 X70.997 Y66.85 E112.29147
G1 X70.887 Y66.612 E112.29815
G1 X70.843 Y66.5 E112.30121
G1 X49.188 Y66.5 E112.85265
G1 X49.237 Y66.4 E112.85549
G1 X49.334 Y66.15 E112.86232
G1 X70.703 Y66.15 E113.40647
G1 X70.589 Y65.864 E113.41431
G1 X70.574 Y65.8 E113.41599
G1 X49.468 Y65.8 E113.95345
G1 X49.482 Y65.763 E113.95445
G1 X49.557 Y65.45 E113.96265
G1 X70.49 Y65.45 E114.4957
G1 X70.435 Y65.225 E114.5016
G1 X70.422 Y65.1 E114.5048
G1 X49.637 Y65.1 E115.03409
G1 X49.676 Y64.75 E115.04306
G1 X70.384 Y64.75 E115.57038
G1 X70.364 Y64.575 E115.57487
G1 X70.366 Y64.4 E115.57932
G1 X49.703 Y64.4 E116.1055
G1 X49.697 Y64.05 E116.11442
G1 X70.372 Y64.05 E116.6409
G1 X70.374 Y63.921 E116.64419
G1 X70.405 Y63.7 E116.64987
G1 X49.676 Y63.7 E117.17773
G1 X49.624 Y63.35 E117.18674
G1 X70.455 Y63.35 E117.7172
G1 X70.467 Y63.273 E117.71918
G1 X70.547 Y63 E117.72642
G1 X49.544 Y63 E118.26126
G1 X49.434 Y62.65 E118.2706
G1 X70.65 Y62.65 E118.81087
G1 X70.753 Y62.3 E118.82016
G1 X49.323 Y62.3 E119.36587
G1 X49.213 Y61.95 E119.37521
G1 X70.85 Y61.95 E119.92619
G1 X70.947 Y61.6 E119.93544
G1 X49.103 Y61.6 E120.49169
G1 X48.993 Y61.25 E120.50103
G1 X71.044 Y61.25 E121.06256
G1 X71.141 Y60.9 E121.07181
G1 X48.882 Y60.9 E121.63863
G1 X48.773 Y60.551 E121.64794
G1 X48.772 Y60.55 E121.64797
G1 X71.237 Y60.55 E122.22004
G1 X71.334 Y60.2 E122.22929
G1 X48.678 Y60.2 E122.80622
G1 X48.632 Y60.027 E122.81078
G1 X48.604 Y59.85 E122.81534
G1 X71.404 Y59.85 E123.39594
G1 X71.438 Y59.68 E123.40035
G1 X71.453 Y59.5 E123.40495
G1 X48.549 Y59.5 E123.9882
G1 X48.536 Y59.407 E123.99059
G1 X48.528 Y59.15 E123.99714
G1 X71.484 Y59.15 E124.58171
G1 X71.495 Y59.036 E124.58462
G1 X71.484 Y58.8 E124.59064
G1 X48.521 Y58.8 E125.17539
G1 X48.554 Y58.45 E125.18434
G1 X71.468 Y58.45 E125.76784
G1 X71.467 Y58.443 E125.76802
G1 X71.408 Y58.1 E125.77688
G1 X48.601 Y58.1 E126.35766
G1 X48.68 Y57.75 E126.3668
G1 X71.333 Y57.75 E126.94365
G1 X71.219 Y57.4 E126.95302
G1 X48.79 Y57.4 E127.52417
G1 X48.918 Y57.05 E127.53366
G1 X71.104 Y57.05 E128.09863
G1 X70.99 Y56.7 E128.108
G1 X49.037 Y56.7 E128.66703
G1 X49.152 Y56.35 E128.67641
G1 X70.875 Y56.35 E129.22958
G1 X70.864 Y56.317 E129.23047
G1 X70.81 Y56 E129.23865
G1 X49.22 Y56 E129.78844
G1 X49.277 Y55.7 E129.79622
G1 X49.281 Y55.65 E129.79749
G1 X70.753 Y55.65 E130.34427
G1 X70.738 Y55.3 E130.35319
G1 X49.303 Y55.3 E130.89903
G1 X49.319 Y55.047 E130.90549
G1 X49.313 Y54.95 E130.90796
G1 X70.73 Y54.95 E131.45334
G1 X70.76 Y54.6 E131.46229
G1 X49.291 Y54.6 E132.00899
G1 X49.279 Y54.394 E132.01424
G1 X49.251 Y54.25 E132.01798
G1 X70.804 Y54.25 E132.56682
G1 X70.878 Y53.9 E132.57593
G1 X49.184 Y53.9 E133.12837
G1 X49.156 Y53.754 E133.13215
G1 X49.091 Y53.55 E133.1376
G1 X70.963 Y53.55 E133.69457
G1 X71.059 Y53.2 E133.70381
G1 X48.98 Y53.2 E134.26605
G1 X48.869 Y52.85 E134.2754
G1 X71.156 Y52.85 E134.84293
G1 X71.252 Y52.5 E134.85217
G1 X48.759 Y52.5 E135.42495
G1 X48.666 Y52.15 E135.43418
G1 X71.345 Y52.15 E136.01169
G1 X71.402 Y51.8 E136.02072
G1 X48.597 Y51.8 E136.60145
G1 X48.542 Y51.45 E136.61047
G1 X71.459 Y51.45 E137.19405
G1 X71.482 Y51.314 E137.19756
G1 X71.485 Y51.1 E137.20301
G1 X48.526 Y51.1 E137.78765
G1 X48.518 Y50.823 E137.79471
G1 X48.526 Y50.75 E137.79658
G1 X71.489 Y50.75 E138.38133
G1 X71.49 Y50.745 E138.38146
G1 X71.452 Y50.4 E138.3903
G1 X48.559 Y50.4 E138.97326
G1 X48.578 Y50.2 E138.97838
G1 X48.612 Y50.05 E138.98229
G1 X71.404 Y50.05 E139.56269
G1 X71.32 Y49.7 E139.57185
G1 X48.691 Y49.7 E140.1481
G1 X48.708 Y49.621 E140.15015
G1 X48.806 Y49.35 E140.15749
G1 X71.208 Y49.35 E140.72796
G1 X71.075 Y49 E140.73749
G1 X48.948 Y49 E141.30095
G1 X49.141 Y48.65 E141.31113
G1 X70.893 Y48.65 E141.86504
G1 X70.776 Y48.431 E141.87136
G1 X70.684 Y48.3 E141.87544
G1 X49.335 Y48.3 E142.41908
G1 X49.379 Y48.219 E142.42143
G1 X49.587 Y47.95 E142.43009
G1 X70.436 Y47.95 E142.96101
G1 X70.365 Y47.85 E142.96413
G1 X70.128 Y47.6 E142.9729
G1 X49.863 Y47.6 E143.48894
G1 X50.214 Y47.25 E143.50157
G1 X69.795 Y47.25 E144.00019
G1 X69.753 Y47.206 E144.00174
G1 X69.361 Y46.9 E144.01441
G1 X50.656 Y46.9 E144.49072
G1 X50.745 Y46.831 E144.49359
G1 X51.225 Y46.55 E144.50776
G1 X68.794 Y46.55 E144.95515
G1 X68.78 Y46.542 E144.95556
G1 X68.214 Y46.294 E144.97129
G1 X67.893 Y46.2 E144.97981
G1 X61.204 Y46.2 E145.15015
G1 X61.394 Y46.161 E145.15508
G1 X62.034 Y46.042 E145.17166
G1 X62.707 Y45.999 E145.18883
G1 X66.504 Y45.999 E145.28552
G1 X67.023 Y46.029 E145.29876
G1 X67.636 Y46.125 E145.31456
G0 F7200 X60.618 Y46.32
G1 F1500 X59.964 Y46.36 E145.33125
G1 X59.312 Y46.319 E145.34788
G1 X58.752 Y46.2 E145.36246
G1 X52.126 Y46.2 E145.53119
G1 X52.386 Y46.125 E145.53808
G1 X53.342 Y46.009 E145.56261
G1 X57.273 Y46 E145.66271
G1 X57.792 Y46.03 E145.67595
G1 X58.413 Y46.128 E145.69196
G0 F7200 X66.504 Y45.999
G0 F600 X66.504 Y45.999 Z1.226
G0 F7200 X54.67 Y52.325
;TIME_ELAPSED:172.966955
;LAYER:0
M106 S255
;TYPE:WALL-INNER
;MESH:alarm door v 3.stl(1)
G1 F1800 X54.532 Y51.904 E145.70891
G1 X54.458 Y51.675 E145.71812
G1 X54.698 Y51.675 E145.72359
G1 X54.699 Y51.675 E145.72363
G1 X56.595 Y51.675 E145.79619
G1 X56.595 Y52.325 E145.82107
G1 X55 Y52.325 E145.88211
G0 F1620 X54.67 Y52.325
G1 F2400 E143.38211
G0 F4320 X56.438 Y52.168
G0 X58.11 Y51.896
G0 X61.83 Y51.896
G0 X62.865 Y51.896
G0 X65.383 Y51.836
G0 X65.534 Y51.896
G1 F2400 E145.89474
G1 F1800 X65.414 Y52.325 E145.91178
G1 X63.345 Y52.325 E145.99096
G1 X63.345 Y51.675 E146.01584
G1 X65.366 Y51.675 E146.09318
G1 X65.367 Y51.675 E146.09322
G1 X65.596 Y51.675 E146.10199
G1 X65.534 Y51.896 E146.10727
G0 F4320 X65.995 Y51.546
G1 F1800 X65.679 Y52.675 E146.15214
G1 X62.995 Y52.675 E146.25485
G1 X62.995 Y51.325 E146.30652
G1 X65.827 Y51.325 E146.4149
G1 X65.828 Y51.325 E146.41494
G1 X66.057 Y51.325 E146.4237
G1 X65.995 Y51.546 E146.42898
G1 F2400 E143.92898
G0 F4320 X65.298 Y52.171
G0 X62.865 Y52.675
G0 X61.842 Y52.042
G0 X58.098 Y52.042
G0 X57.075 Y52.675
G0 X54.416 Y52.675
G1 F2400 E146.42898
G1 F1800 X54.049 Y51.554 E146.47413
G1 X53.975 Y51.325 E146.48334
G1 X54.215 Y51.325 E146.48881
G1 X54.216 Y51.325 E146.48885
G1 X56.945 Y51.325 E146.59329
G1 X56.945 Y52.675 E146.64495
G1 X54.904 Y52.675 E146.72306
G0 F1620 X54.416 Y52.675
G0 F4320 X57.025 Y52.755
G0 X57.27 Y52.87
;TYPE:WALL-OUTER
G1 F2400 E146.74173
G1 F1800 X62.67 Y52.87 E146.94839
G1 X62.67 Y51 E147.01996
G1 X66.256 Y51 E147.15719
G1 X66.257 Y51 E147.15723
G1 X66.486 Y51 E147.16599
G1 X66.424 Y51.221 E147.17128
G1 X65.944 Y52.935 E147.2394
G1 X65.926 Y53 E147.24198
G1 X62.67 Y53 E147.36659
G1 X57.27 Y53 E147.44334
G1 X54.18 Y53 E147.5616
G1 X53.601 Y51.229 E147.6329
G1 X53.527 Y51 E147.64211
G1 X53.767 Y51 E147.64759
G1 X53.768 Y51 E147.64763
G1 X57.27 Y51 E147.78165
G1 X57.27 Y52.473 E147.83802
G0 F1620 X57.27 Y52.87
G0 F4320 X57.47 Y52.87
G0 X57.025 Y52.755
G0 X56.51 Y51.982
G0 X56.437 Y51.982
;TYPE:SKIN
G1 F2400 E147.85321
G1 F1800 X56.287 Y51.832 E147.86133
G0 F4320 X56.128 Y52.168
G1 F1800 X55.792 Y51.832 E147.87951
G0 F4320 X55.633 Y52.168
G1 F1800 X55.297 Y51.832 E147.8977
G0 F4320 X55.138 Y52.168
G1 F1800 X54.802 Y51.832 E147.91588
G1 F2400 E145.41588
G0 F4320 X54.802 Y51.76
G0 X56.438 Y51.832
G0 X57.075 Y52.24
G0 X58.098 Y52.042
G0 X61.842 Y52.042
G0 X62.865 Y52.24
G0 X63.551 Y52.167
G1 F2400 E147.91588
G1 F1800 X63.501 Y52.116 E147.91862
G0 F4320 X63.711 Y51.832
G1 F1800 X64.046 Y52.167 E147.93675
G0 F4320 X64.206 Y51.832
G1 F1800 X64.541 Y52.167 E147.95488
G0 F4320 X64.701 Y51.832
G1 F1800 X65.036 Y52.167 E147.97301
G0 F4320 X65.346 Y51.982
G1 F1800 X65.196 Y51.832 E147.98113
G0 F4320 X65.196 Y51.525
G1 F2400 E145.48113
;MESH:alarm door v 3.stl
G0 F4320 X65.534 Y52.805
G0 X65.534 Y53.84
G0 X65.534 Y58.16
G0 X65.534 Y59.195
G0 X65.534 Y59.896
;TYPE:WALL-INNER
G1 F2400 E147.98113
G1 F1800 X65.414 Y60.325 E147.99818
G1 X63.345 Y60.325 E148.07736
G1 X63.345 Y59.675 E148.10223
G1 X65.366 Y59.675 E148.17958
G1 X65.367 Y59.675 E148.17961
G1 X65.596 Y59.675 E148.18838
G1 X65.534 Y59.896 E148.19366
G1 F2400 E145.69366
G0 F4320 X62.865 Y60.325
G0 X61.842 Y60.042
G0 X58.098 Y60.042
G0 X57.075 Y60.325
G0 X54.67 Y60.325
G1 F2400 E148.19366
G1 F1800 X54.532 Y59.904 E148.21062
G1 X54.458 Y59.675 E148.21983
G1 X54.698 Y59.675 E148.2253
G1 X54.699 Y59.675 E148.22534
G1 X56.595 Y59.675 E148.2979
G1 X56.595 Y60.325 E148.32277
G1 X55 Y60.325 E148.38381
G0 F1620 X54.67 Y60.325
G0 F4320 X54.416 Y60.675
G1 F2400 E148.39644
G1 F1800 X54.049 Y59.554 E148.44158
G1 X53.975 Y59.325 E148.45079
G1 X54.215 Y59.325 E148.45627
G1 X54.216 Y59.325 E148.45631
G1 X56.945 Y59.325 E148.56074
G1 X56.945 Y60.675 E148.61241
G1 X54.904 Y60.675 E148.69052
G0 F1620 X54.416 Y60.675
G1 F2400 E146.19052
G0 F4320 X56.438 Y60.168
G0 X57.075 Y59.546
G0 X58.11 Y59.546
G0 X61.83 Y59.546
G0 X62.865 Y59.546
G0 X65.995 Y59.546
G1 F2400 E148.70919
G1 F1800 X65.679 Y60.675 E148.75406
G1 X62.995 Y60.675 E148.85678
G1 X62.995 Y59.325 E148.90844
G1 X65.827 Y59.325 E149.01682
G1 X65.828 Y59.325 E149.01686
G1 X66.057 Y59.325 E149.02562
G1 X65.995 Y59.546 E149.03091
G1 F2400 E146.53091
G0 F4320 X65.298 Y60.171
G0 X62.865 Y60.755
G0 X61.842 Y60.042
G0 X58.098 Y60.042
G0 X57.075 Y60.755
G0 X57.27 Y60.87
;TYPE:WALL-OUTER
G1 F2400 E149.03091
G1 F1800 X62.67 Y60.87 E149.23757
G1 X62.67 Y59 E149.30913
G1 X66.256 Y59 E149.44637
G1 X66.257 Y59 E149.4464
G1 X66.486 Y59 E149.45517
G1 X66.424 Y59.221 E149.46045
G1 X65.944 Y60.935 E149.52857
G1 X65.926 Y61 E149.53115
G1 X62.67 Y61 E149.65576
G1 X57.27 Y61 E149.73252
G1 X54.18 Y61 E149.85077
G1 X53.601 Y59.229 E149.92208
G1 X53.527 Y59 E149.93129
G1 X53.767 Y59 E149.93676
G1 X53.768 Y59 E149.9368
G1 X57.27 Y59 E150.07082
G1 X57.27 Y60.473 E150.12719
G0 F1620 X57.27 Y60.87
G0 F4320 X57.47 Y60.87
G0 X57.025 Y60.755
G0 X56.51 Y59.903
G0 X56.438 Y59.903
;TYPE:SKIN
G1 F2400 E150.14238
G1 F1800 X56.366 Y59.831 E150.14628
G0 F4320 X56.207 Y60.167
G1 F1800 X55.871 Y59.831 E150.16447
G0 F4320 X55.712 Y60.167
G1 F1800 X55.376 Y59.831 E150.18265
G0 F4320 X55.217 Y60.167
G1 F1800 X54.881 Y59.831 E150.20084
G1 F2400 E147.70084
G0 F4320 X54.881 Y59.76
G0 X56.438 Y59.832
G0 X57.075 Y60.24
G0 X58.098 Y60.042
G0 X61.842 Y60.042
G0 X62.865 Y60.24
G0 X63.632 Y60.24
G0 X63.632 Y60.167
G1 F2400 E150.20084
G1 F1800 X63.501 Y60.036 E150.20793
G0 F4320 X63.791 Y59.831
G1 F1800 X64.127 Y60.167 E150.22611
G0 F4320 X64.286 Y59.831
G1 F1800 X64.622 Y60.167 E150.2443
G0 F4320 X64.781 Y59.831
G1 F1800 X65.117 Y60.167 E150.26248
G0 F4320 X65.364 Y59.919
G1 F1800 X65.276 Y59.831 E150.26724
G0 F4320 X65.276 Y59.525
G1 F2400 E147.76724
;MESH:alarm door v 3.stl(2)
G0 F4320 X65.534 Y60.805
G0 X65.534 Y61.84
G0 X65.534 Y68.16
G0 X65.534 Y69.195
G0 X65.534 Y69.896
;TYPE:WALL-INNER
G1 F2400 E150.26724
G1 F1800 X65.414 Y70.325 E150.28429
G1 X63.345 Y70.325 E150.36347
G1 X63.345 Y69.675 E150.38835
G1 X65.366 Y69.675 E150.46569
G1 X65.367 Y69.675 E150.46573
G1 X65.596 Y69.675 E150.47449
G1 X65.534 Y69.896 E150.47978
G1 F2400 E147.97978
G0 F4320 X62.865 Y70.325
G0 X61.842 Y70.042
G0 X58.098 Y70.042
G0 X57.075 Y70.325
G0 X54.67 Y70.325
G1 F2400 E150.47978
G1 F1800 X54.532 Y69.904 E150.49673
G1 X54.458 Y69.675 E150.50594
G1 X54.698 Y69.675 E150.51142
G1 X54.699 Y69.675 E150.51145
G1 X56.595 Y69.675 E150.58401
G1 X56.595 Y70.325 E150.60889
G1 X55 Y70.325 E150.66993
G0 F1620 X54.67 Y70.325
G0 F4320 X54.416 Y70.675
G1 F2400 E150.68256
G1 F1800 X54.049 Y69.554 E150.7277
G1 X53.975 Y69.325 E150.73691
G1 X54.215 Y69.325 E150.74238
G1 X54.216 Y69.325 E150.74242
G1 X56.945 Y69.325 E150.84686
G1 X56.945 Y70.675 E150.89852
G1 X54.904 Y70.675 E150.97663
G0 F1620 X54.416 Y70.675
G1 F2400 E148.47663
G0 F4320 X56.438 Y70.168
G0 X57.075 Y69.546
G0 X58.11 Y69.546
G0 X61.83 Y69.546
G0 X62.865 Y69.546
G0 X65.995 Y69.546
G1 F2400 E150.99531
G1 F1800 X65.679 Y70.675 E151.04018
G1 X62.995 Y70.675 E151.14289
G1 X62.995 Y69.325 E151.19456
G1 X65.827 Y69.325 E151.30294
G1 X65.828 Y69.325 E151.30298
G1 X66.057 Y69.325 E151.31174
G1 X65.995 Y69.546 E151.31702
G1 F2400 E148.81702
G0 F4320 X65.298 Y70.171
G0 X62.865 Y70.755
G0 X61.842 Y70.042
G0 X58.098 Y70.042
G0 X57.075 Y70.755
G0 X57.27 Y70.87
;TYPE:WALL-OUTER
G1 F2400 E151.31702
G1 F1800 X62.67 Y70.87 E151.52368
G1 X62.67 Y69 E151.59525
G1 X66.256 Y69 E151.73248
G1 X66.257 Y69 E151.73252
G1 X66.486 Y69 E151.74128
G1 X66.424 Y69.221 E151.74657
G1 X65.944 Y70.935 E151.81469
G1 X65.926 Y71 E151.81727
G1 X62.67 Y71 E151.94187
G1 X57.27 Y71 E152.01863
G1 X54.18 Y71 E152.13689
G1 X53.601 Y69.229 E152.20819
G1 X53.527 Y69 E152.2174
G1 X53.767 Y69 E152.22288
G1 X53.768 Y69 E152.22291
G1 X57.27 Y69 E152.35694
G1 X57.27 Y70.473 E152.41331
G0 F1620 X57.27 Y70.87
G0 F4320 X57.47 Y70.87
G0 X57.025 Y70.755
G0 X56.307 Y70.24
G0 X56.307 Y70.166
;TYPE:SKIN
G1 F2400 E152.4285
G1 F1800 X55.972 Y69.831 E152.44663
G0 F4320 X55.812 Y70.166
G1 F1800 X55.477 Y69.831 E152.46476
G0 F4320 X55.317 Y70.166
G1 F1800 X54.982 Y69.831 E152.48289
G0 F4320 X54.764 Y70.108
G1 F1800 X54.822 Y70.166 E152.48603
G1 F2400 E149.98603
G0 F4320 X54.822 Y70.24
G0 X57.075 Y70.24
G0 X58.098 Y70.042
G0 X61.842 Y70.042
G0 X62.865 Y70.24
G0 X63.732 Y70.24
G0 X63.732 Y70.166
G1 F2400 E152.48603
G1 F1800 X63.501 Y69.936 E152.49851
G0 F4320 X63.891 Y69.831
G1 F1800 X64.227 Y70.166 E152.51666
G0 F4320 X64.386 Y69.831
G1 F1800 X64.722 Y70.166 E152.53482
G0 F4320 X64.881 Y69.831
G1 F1800 X65.217 Y70.166 E152.55298
G0 F4320 X65.217 Y70.475
G1 F2400 E150.05298
;MESH:NONMESH
G0 F600 X65.217 Y70.475 Z1.27
G0 F4320 X63.502 Y70.168
G0 X62.859 Y69.189
G0 X62.859 Y68.16
G0 X53.468 Y61.517
G0 X52.601 Y58.853
G0 X57.081 Y53.84
G0 X57.081 Y52.811
G0 X54.67 Y52.325
;TIME_ELAPSED:187.135582
;LAYER:1
;TYPE:WALL-INNER
;MESH:alarm door v 3.stl(1)
G1 F2400 E152.55298
G1 X54.532 Y51.904 E152.56426
G1 X54.458 Y51.675 E152.57039
G1 X54.698 Y51.675 E152.57403
G1 X54.699 Y51.675 E152.57406
G1 X56.595 Y51.675 E152.62234
G1 X56.595 Y52.325 E152.63889
G1 X55 Y52.325 E152.67951
G0 F2160 X54.67 Y52.325
G1 F2400 E150.17951
G0 F5760 X56.438 Y52.168
G0 X58.11 Y51.896
G0 X61.83 Y51.896
G0 X62.865 Y51.896
G0 X65.382 Y51.836
G0 X65.533 Y51.896
G1 F2400 E152.68791
G1 X65.413 Y52.325 E152.69925
G1 X63.345 Y52.325 E152.75192
G1 X63.345 Y51.675 E152.76847
G1 X65.365 Y51.675 E152.81991
G1 X65.366 Y51.675 E152.81993
G1 X65.595 Y51.675 E152.82576
G1 X65.533 Y51.896 E152.82928
G0 F5760 X62.995 Y52.675
G1 F2400 X62.995 Y51.325 E152.86366
G1 X65.827 Y51.325 E152.93577
G1 X65.828 Y51.325 E152.9358
G1 X66.057 Y51.325 E152.94163
G1 X65.995 Y51.546 E152.94515
G1 X65.678 Y52.675 E152.97501
G1 X63.193 Y52.675 E153.03829
G0 F2160 X62.995 Y52.675
G1 F2400 E150.53829
G0 F5760 X61.842 Y52.042
G0 X58.098 Y52.042
G0 X57.075 Y52.675
G0 X54.416 Y52.675
G1 F2400 E153.04333
G1 X54.049 Y51.554 E153.07337
G1 X53.975 Y51.325 E153.07949
G1 X54.215 Y51.325 E153.08314
G1 X54.216 Y51.325 E153.08316
G1 X56.945 Y51.325 E153.15266
G1 X56.945 Y52.675 E153.18703
G1 X54.904 Y52.675 E153.23901
G0 F2160 X54.416 Y52.675
G0 F5760 X57.025 Y52.755
G0 X57.27 Y52.87
;TYPE:WALL-OUTER
G1 F2400 E153.25143
G1 F2025 X62.67 Y52.87 E153.38894
G1 X62.67 Y51 E153.43656
G1 X66.256 Y51 E153.52788
G1 X66.257 Y51 E153.5279
G1 X66.486 Y51 E153.53374
G1 X66.424 Y51.221 E153.53725
G1 X65.925 Y53 E153.5843
G1 X62.67 Y53 E153.66719
G1 X57.27 Y53 E153.71826
G1 X54.18 Y53 E153.79695
G1 X53.634 Y51.332 E153.84164
G1 X53.624 Y51.299 E153.84252
G1 X53.526 Y51 E153.85053
G1 X53.624 Y51
G1 X53.659 Y51 E153.85137
G1 X57.27 Y51 E153.94333
G1 X57.27 Y52.732 E153.98743
G0 F1822.5 X57.27 Y52.87
G0 F5760 X57.47 Y52.87
G0 X57.025 Y52.755
G0 X56.51 Y51.962
G0 X56.437 Y51.962
;TYPE:SKIN
G1 F2400 E153.99095
G1 F1500 X56.231 Y52.168 E153.99837
G0 F5760 X56.072 Y51.832
G1 F1500 X55.736 Y52.168 E154.01047
G0 F5760 X55.577 Y51.832
G1 F1500 X55.241 Y52.168 E154.02257
G0 F5760 X55.082 Y51.832
G1 F1500 X54.774 Y52.139 E154.03364
G1 F2400 E151.53364
G0 F5760 X54.705 Y52.159
G0 X57.075 Y52.24
G0 X58.098 Y52.042
G0 X61.842 Y52.042
G0 X62.865 Y52.24
G0 X63.655 Y52.24
G0 X63.655 Y52.168
G1 F2400 E154.03364
G1 F1500 X63.991 Y51.832 E154.04574
G0 F5760 X64.15 Y52.168
G1 F1500 X64.486 Y51.832 E154.05784
G0 F5760 X64.645 Y52.168
G1 F1500 X64.981 Y51.832 E154.06994
G0 F5760 X65.14 Y52.168
G1 F1500 X65.352 Y51.956 E154.07758
G0 F5760 X65.65 Y52.04
G1 F2400 E151.57758
;MESH:alarm door v 3.stl
G0 F5760 X65.533 Y52.805
G0 X65.533 Y53.84
G0 X65.533 Y58.16
G0 X65.533 Y59.195
G0 X65.533 Y59.896
;TYPE:WALL-INNER
G1 F2400 E154.07758
G1 X65.413 Y60.325 E154.08892
G1 X63.345 Y60.325 E154.14158
G1 X63.345 Y59.675 E154.15813
G1 X65.365 Y59.675 E154.20957
G1 X65.366 Y59.675 E154.2096
G1 X65.595 Y59.675 E154.21543
G1 X65.533 Y59.896 E154.21894
G1 F2400 E151.71894
G0 F5760 X62.865 Y60.325
G0 X61.842 Y60.042
G0 X58.098 Y60.042
G0 X57.075 Y60.325
G0 X54.67 Y60.325
G1 F2400 E154.21894
G1 X54.532 Y59.904 E154.23023
G1 X54.458 Y59.675 E154.23636
G1 X54.698 Y59.675 E154.24
G1 X54.699 Y59.675 E154.24002
G1 X56.595 Y59.675 E154.2883
G1 X56.595 Y60.325 E154.30486
G1 X55 Y60.325 E154.34547
G0 F2160 X54.67 Y60.325
G0 F5760 X54.416 Y60.675
G1 F2400 E154.35388
G1 X54.049 Y59.554 E154.38391
G1 X53.975 Y59.325 E154.39004
G1 X54.215 Y59.325 E154.39368
G1 X54.216 Y59.325 E154.39371
G1 X56.945 Y59.325 E154.4632
G1 X56.945 Y60.675 E154.49758
G1 X54.904 Y60.675 E154.54955
G0 F2160 X54.416 Y60.675
G1 F2400 E152.04955
G0 F5760 X57.075 Y60.675
G0 X58.098 Y60.042
G0 X61.842 Y60.042
G0 X62.865 Y60.675
G0 X62.995 Y60.675
G1 F2400 E154.56198
G1 X62.995 Y59.325 E154.59636
G1 X65.827 Y59.325 E154.66847
G1 X65.828 Y59.325 E154.6685
G1 X66.057 Y59.325 E154.67433
G1 X65.995 Y59.546 E154.67785
G1 X65.678 Y60.675 E154.70771
G1 X63.193 Y60.675 E154.77099
G0 F2160 X62.995 Y60.675
G1 F2400 E152.27099
G0 F5760 X61.842 Y60.042
G0 X58.098 Y60.042
G0 X57.075 Y60.755
G0 X57.27 Y60.87
;TYPE:WALL-OUTER
G1 F2400 E154.77603
G1 F2025 X62.67 Y60.87 E154.91354
G1 X62.67 Y59 E154.96116
G1 X66.256 Y59 E155.05247
G1 X66.257 Y59 E155.0525
G1 X66.486 Y59 E155.05833
G1 X66.424 Y59.221 E155.06185
G1 X65.925 Y61 E155.1089
G1 X62.67 Y61 E155.19179
G1 X57.27 Y61 E155.24286
G1 X54.18 Y61 E155.32155
G1 X53.634 Y59.332 E155.36624
G1 X53.624 Y59.299 E155.36712
G1 X53.526 Y59 E155.37513
G1 X53.624 Y59
G1 X53.659 Y59 E155.37597
G1 X57.27 Y59 E155.46792
G1 X57.27 Y60.732 E155.51203
G0 F1822.5 X57.27 Y60.87
G0 F5760 X57.47 Y60.87
G0 X57.025 Y60.755
G0 X56.151 Y60.24
G0 X56.151 Y60.167
;TYPE:SKIN
G1 F2400 E155.51554
G1 F1500 X56.437 Y59.881 E155.52584
G0 F5760 X55.992 Y59.831
G1 F1500 X55.656 Y60.167 E155.53794
G0 F5760 X55.497 Y59.831
G1 F1500 X55.161 Y60.167 E155.55004
G0 F5760 X55.003 Y59.831
G1 F1500 X54.755 Y60.078 E155.55896
G1 F2400 E153.05896
G0 F5760 X54.685 Y60.098
G0 X57.075 Y60.24
G0 X58.098 Y60.042
G0 X61.842 Y60.042
G0 X62.865 Y60.24
G0 X63.575 Y60.24
G0 X63.575 Y60.168
G1 F2400 E155.55896
G1 F1500 X63.911 Y59.831 E155.57107
G0 F5760 X64.07 Y60.168
G1 F1500 X64.406 Y59.831 E155.58319
G0 F5760 X64.565 Y60.168
G1 F1500 X64.901 Y59.831 E155.59531
G0 F5760 X65.06 Y60.168
G1 F1500 X65.382 Y59.845 E155.60693
G0 F5760 X65.63 Y59.649
G1 F2400 E153.10693
;MESH:alarm door v 3.stl(2)
G0 F5760 X65.533 Y60.805
G0 X65.533 Y61.84
G0 X65.533 Y68.16
G0 X65.533 Y69.195
G0 X65.533 Y69.896
;TYPE:WALL-INNER
G1 F2400 E155.60693
G1 X65.413 Y70.325 E155.61827
G1 X63.345 Y70.325 E155.67093
G1 X63.345 Y69.675 E155.68748
G1 X65.365 Y69.675 E155.73892
G1 X65.366 Y69.675 E155.73895
G1 X65.595 Y69.675 E155.74478
G1 X65.533 Y69.896 E155.74829
G1 F2400 E153.24829
G0 F5760 X62.865 Y70.325
G0 X61.842 Y70.042
G0 X58.098 Y70.042
G0 X57.075 Y70.325
G0 X54.67 Y70.325
G1 F2400 E155.74829
G1 X54.532 Y69.904 E155.75958
G1 X54.458 Y69.675 E155.7657
G1 X54.698 Y69.675 E155.76935
G1 X54.699 Y69.675 E155.76937
G1 X56.595 Y69.675 E155.81765
G1 X56.595 Y70.325 E155.8342
G1 X55 Y70.325 E155.87482
G0 F2160 X54.67 Y70.325
G0 F5760 X54.416 Y70.675
G1 F2400 E155.88322
G1 X54.049 Y69.554 E155.91326
G1 X53.975 Y69.325 E155.91939
G1 X54.215 Y69.325 E155.92303
G1 X54.216 Y69.325 E155.92306
G1 X56.945 Y69.325 E155.99255
G1 X56.945 Y70.675 E156.02693
G1 X54.904 Y70.675 E156.0789
G0 F2160 X54.416 Y70.675
G1 F2400 E153.5789
G0 F5760 X57.075 Y70.675
G0 X58.098 Y70.042
G0 X61.842 Y70.042
G0 X62.865 Y70.675
G0 X62.995 Y70.675
G1 F2400 E156.09133
G1 X62.995 Y69.325 E156.12571
G1 X65.827 Y69.325 E156.19782
G1 X65.828 Y69.325 E156.19785
G1 X66.057 Y69.325 E156.20368
G1 X65.995 Y69.546 E156.20719
G1 X65.678 Y70.675 E156.23706
G1 X63.193 Y70.675 E156.30034
G0 F2160 X62.995 Y70.675
G1 F2400 E153.80034
G0 F5760 X61.842 Y70.042
G0 X58.098 Y70.042
G0 X57.075 Y70.755
G0 X57.27 Y70.87
;TYPE:WALL-OUTER
G1 F2400 E156.30538
G1 F2025 X62.67 Y70.87 E156.44289
G1 X62.67 Y69 E156.49051
G1 X66.256 Y69 E156.58182
G1 X66.257 Y69 E156.58185
G1 X66.486 Y69 E156.58768
G1 X66.424 Y69.221 E156.5912
G1 X65.925 Y71 E156.63825
G1 X62.67 Y71 E156.72113
G1 X57.27 Y71 E156.77221
G1 X54.18 Y71 E156.8509
G1 X53.634 Y69.332 E156.89559
G1 X53.624 Y69.299 E156.89647
G1 X53.526 Y69 E156.90448
G1 X53.624 Y69
G1 X53.659 Y69 E156.90532
G1 X57.27 Y69 E156.99727
G1 X57.27 Y70.732 E157.04138
G0 F1822.5 X57.27 Y70.87
G0 F5760 X57.47 Y70.87
G0 X57.025 Y70.755
G0 X56.387 Y69.76
G0 X56.387 Y69.831
;TYPE:SKIN
G1 F2400 E157.04489
G1 F1500 X56.05 Y70.167 E157.05701
G0 F5760 X55.892 Y69.831
G1 F1500 X55.555 Y70.167 E157.06913
G0 F5760 X55.397 Y69.831
G1 F1500 X55.06 Y70.167 E157.08125
G0 F5760 X54.73 Y70.002
G1 F1500 X54.902 Y69.831 E157.08742
G1 F2400 E154.58742
G0 F5760 X54.902 Y69.76
G0 X56.438 Y69.832
G0 X57.075 Y70.21
G0 X58.098 Y70.042
G0 X61.842 Y70.042
G0 X62.865 Y70.21
G0 X63.502 Y70.14
G1 F2400 E157.08742
G1 F1500 X63.812 Y69.831 E157.09857
G0 F5760 X63.97 Y70.167
G1 F1500 X64.307 Y69.831 E157.11069
G0 F5760 X64.465 Y70.167
G1 F1500 X64.802 Y69.831 E157.12281
G0 F5760 X64.96 Y70.167
G1 F1500 X65.297 Y69.831 E157.13492
G0 F5760 X65.297 Y69.525
G1 F2400 E154.63492
;MESH:NONMESH
G0 F600 X65.297 Y69.525 Z1.445
G0 F5760 X62.859 Y69.189
G0 X62.859 Y68.16
G0 X53.468 Y61.517
G0 X52.6 Y58.856
G0 X57.081 Y53.84
G0 X57.081 Y52.811
G0 X54.67 Y52.325
;TIME_ELAPSED:200.575473
;LAYER:2
;TYPE:WALL-INNER
;MESH:alarm door v 3.stl(1)
G1 F2400 E157.13492
G1 F3000 X54.532 Y51.904 E157.14621
G1 X54.458 Y51.675 E157.15233
G1 X54.698 Y51.675 E157.15598
G1 X54.699 Y51.675 E157.156
G1 X56.595 Y51.675 E157.20428
G1 X56.595 Y52.325 E157.22083
G1 X55 Y52.325 E157.26145
G0 F2700 X54.67 Y52.325
G1 F2400 E154.76145
G0 F7200 X56.438 Y52.168
G0 X58.11 Y51.896
G0 X61.83 Y51.896
G0 X62.865 Y51.896
G0 X65.382 Y51.836
G0 X65.533 Y51.896
G1 F2400 E157.26985
G1 F3000 X65.413 Y52.325 E157.2812
G1 X63.345 Y52.325 E157.33386
G1 X63.345 Y51.675 E157.35041
G1 X65.365 Y51.675 E157.40185
G1 X65.366 Y51.675 E157.40188
G1 X65.595 Y51.675 E157.40771
G1 X65.533 Y51.896 E157.41122
G0 F7200 X62.995 Y52.675
G1 F3000 X62.995 Y51.325 E157.4456
G1 X65.827 Y51.325 E157.51772
G1 X65.828 Y51.325 E157.51774
G1 X66.057 Y51.325 E157.52357
G1 X65.995 Y51.546 E157.52709
G1 X65.678 Y52.675 E157.55695
G1 X63.193 Y52.675 E157.62023
G0 F2700 X62.995 Y52.675
G1 F2400 E155.12023
G0 F7200 X62.865 Y51.478
G0 X61.83 Y51.478
G0 X58.11 Y51.478
G0 X57.075 Y51.478
G0 X54.025 Y51.478
G1 F2400 E157.62527
G1 F3000 X53.975 Y51.325 E157.62937
G1 X54.025 Y51.325
G1 X54.16 Y51.325 E157.63281
G1 X56.945 Y51.325 E157.70373
G1 X56.945 Y52.675 E157.73811
G1 X54.416 Y52.675 E157.80251
G1 X54.066 Y51.606 E157.83115
G1 X54.025 Y51.478 E157.83379
G0 F7200 X54.781 Y52.172
G0 X57.025 Y52.755
G0 X57.27 Y52.87
;TYPE:WALL-OUTER
G1 F2250 X62.67 Y52.87 E157.9713
G1 X62.67 Y51 E158.01892
G1 X66.256 Y51 E158.11024
G1 X66.257 Y51 E158.11027
G1 X66.486 Y51 E158.1161
G1 X66.424 Y51.221 E158.11961
G1 X65.925 Y53 E158.16666
G1 X62.67 Y53 E158.24955
G1 X57.27 Y53 E158.30063
G1 X54.18 Y53 E158.37931
G1 X53.716 Y51.579 E158.41738
G1 X53.601 Y51.229 E158.42676
G1 X53.526 Y51 E158.4329
G1 X53.766 Y51 E158.43653
G1 X53.767 Y51 E158.43656
G1 X57.27 Y51 E158.52576
G1 X57.27 Y52.474 E158.56329
G0 F2025 X57.27 Y52.87
G0 F7200 X57.47 Y52.87
G0 X57.025 Y52.755
G0 X56.51 Y51.982
G0 X56.437 Y51.982
;TYPE:SKIN
G1 F2400 E158.57338
G1 F1200 X56.287 Y51.832 E158.57878
G0 F7200 X56.128 Y52.168
G1 F1200 X55.792 Y51.832 E158.59088
G0 F7200 X55.633 Y52.168
G1 F1200 X55.297 Y51.832 E158.60298
G0 F7200 X55.138 Y52.168
G1 F1200 X54.802 Y51.832 E158.61508
G1 F2400 E156.11508
G0 F7200 X54.802 Y51.76
G0 X56.438 Y51.832
G0 X57.075 Y52.24
G0 X58.098 Y52.042
G0 X61.842 Y52.042
G0 X62.865 Y52.24
G0 X63.552 Y52.168
G1 F2400 E158.61508
G1 F1200 X63.501 Y52.116 E158.61694
G0 F7200 X63.711 Y51.832
G1 F1200 X64.047 Y52.168 E158.62904
G0 F7200 X64.206 Y51.832
G1 F1200 X64.542 Y52.168 E158.64114
G0 F7200 X64.701 Y51.832
G1 F1200 X65.037 Y52.168 E158.65324
G0 F7200 X65.345 Y51.981
G1 F1200 X65.196 Y51.832 E158.6586
G0 F7200 X65.196 Y51.525
G1 F2400 E156.1586
;MESH:alarm door v 3.stl
G0 F7200 X65.533 Y52.805
G0 X65.533 Y53.84
G0 X65.533 Y58.16
G0 X65.533 Y59.195
G0 X65.533 Y59.896
;TYPE:WALL-INNER
G1 F2400 E158.6586
G1 F3000 X65.413 Y60.325 E158.66995
G1 X63.345 Y60.325 E158.72261
G1 X63.345 Y59.675 E158.73916
G1 X65.365 Y59.675 E158.7906
G1 X65.366 Y59.675 E158.79062
G1 X65.595 Y59.675 E158.79646
G1 X65.533 Y59.896 E158.79997
G1 F2400 E156.29997
G0 F7200 X62.865 Y60.325
G0 X61.842 Y60.042
G0 X58.098 Y60.042
G0 X57.075 Y60.325
G0 X54.67 Y60.325
G1 F2400 E158.79997
G1 F3000 X54.532 Y59.904 E158.81125
G1 X54.458 Y59.675 E158.81738
G1 X54.698 Y59.675 E158.82102
G1 X54.699 Y59.675 E158.82105
G1 X56.595 Y59.675 E158.86933
G1 X56.595 Y60.325 E158.88588
G1 X55 Y60.325 E158.9265
G0 F2700 X54.67 Y60.325
G0 F7200 X54.025 Y59.478
G1 F2400 E158.9349
G1 F3000 X53.975 Y59.325 E158.939
G1 X54.025 Y59.325
G1 X54.16 Y59.325 E158.94244
G1 X56.945 Y59.325 E159.01336
G1 X56.945 Y60.675 E159.04774
G1 X54.416 Y60.675 E159.11214
G1 X54.066 Y59.606 E159.14078
G1 X54.025 Y59.478 E159.14342
G1 F2400 E156.64342
G0 F7200 X54.781 Y60.172
G0 X57.075 Y60.675
G0 X58.098 Y60.042
G0 X61.842 Y60.042
G0 X62.865 Y60.675
G0 X62.995 Y60.675
G1 F2400 E159.14342
G1 F3000 X62.995 Y59.325 E159.1778
G1 X65.827 Y59.325 E159.24992
G1 X65.828 Y59.325 E159.24994
G1 X66.057 Y59.325 E159.25577
G1 X65.995 Y59.546 E159.25929
G1 X65.678 Y60.675 E159.28915
G1 X63.193 Y60.675 E159.35243
G0 F2700 X62.995 Y60.675
G1 F2400 E156.85243
G0 F7200 X61.842 Y60.042
G0 X58.098 Y60.042
G0 X57.075 Y60.755
G0 X57.27 Y60.87
;TYPE:WALL-OUTER
G1 F2400 E159.35747
G1 F2250 X62.67 Y60.87 E159.49498
G1 X62.67 Y59 E159.5426
G1 X66.256 Y59 E159.63392
G1 X66.257 Y59 E159.63394
G1 X66.486 Y59 E159.63977
G1 X66.424 Y59.221 E159.64329
G1 X65.925 Y61 E159.69034
G1 X62.67 Y61 E159.77323
G1 X57.27 Y61 E159.8243
G1 X54.18 Y61 E159.90299
G1 X53.716 Y59.579 E159.94106
G1 X53.601 Y59.229 E159.95044
G1 X53.526 Y59 E159.95657
G1 X53.766 Y59 E159.96021
G1 X53.767 Y59 E159.96023
G1 X57.27 Y59 E160.04944
G1 X57.27 Y60.474 E160.08697
G0 F2025 X57.27 Y60.87
G0 F7200 X57.47 Y60.87
G0 X57.025 Y60.755
G0 X56.51 Y59.903
G0 X56.438 Y59.903
;TYPE:SKIN
G1 F2400 E160.09706
G1 F1200 X56.366 Y59.831 E160.09965
G0 F7200 X56.207 Y60.167
G1 F1200 X55.871 Y59.831 E160.11175
G0 F7200 X55.712 Y60.167
G1 F1200 X55.376 Y59.831 E160.12385
G0 F7200 X55.217 Y60.167
G1 F1200 X54.881 Y59.831 E160.13595
G1 F2400 E157.63595
G0 F7200 X54.881 Y59.76
G0 X56.438 Y59.832
G0 X57.075 Y60.24
G0 X58.098 Y60.042
G0 X61.842 Y60.042
G0 X62.865 Y60.24
G0 X63.632 Y60.24
G0 X63.632 Y60.167
G1 F2400 E160.13595
G1 F1200 X63.501 Y60.036 E160.14067
G0 F7200 X63.791 Y59.831
G1 F1200 X64.127 Y60.167 E160.15277
G0 F7200 X64.286 Y59.831
G1 F1200 X64.622 Y60.167 E160.16487
G0 F7200 X64.781 Y59.831
G1 F1200 X65.117 Y60.167 E160.17697
G0 F7200 X65.363 Y59.918
G1 F1200 X65.276 Y59.831 E160.1801
G0 F7200 X65.276 Y59.525
G1 F2400 E157.6801
;MESH:alarm door v 3.stl(2)
G0 F7200 X65.533 Y60.805
G0 X65.533 Y61.84
G0 X65.533 Y68.16
G0 X65.533 Y69.195
G0 X65.533 Y69.896
;TYPE:WALL-INNER
G1 F2400 E160.1801
G1 F3000 X65.413 Y70.325 E160.19145
G1 X63.345 Y70.325 E160.24411
G1 X63.345 Y69.675 E160.26066
G1 X65.365 Y69.675 E160.3121
G1 X65.366 Y69.675 E160.31212
G1 X65.595 Y69.675 E160.31795
G1 X65.533 Y69.896 E160.32147
G1 F2400 E157.82147
G0 F7200 X62.865 Y70.325
G0 X61.842 Y70.042
G0 X58.098 Y70.042
G0 X57.075 Y70.325
G0 X54.67 Y70.325
G1 F2400 E160.32147
G1 F3000 X54.532 Y69.904 E160.33275
G1 X54.458 Y69.675 E160.33888
G1 X54.698 Y69.675 E160.34252
G1 X54.699 Y69.675 E160.34255
G1 X56.595 Y69.675 E160.39083
G1 X56.595 Y70.325 E160.40738
G1 X55 Y70.325 E160.448
G0 F2700 X54.67 Y70.325
G0 F7200 X54.025 Y69.478
G1 F2400 E160.4564
G1 F3000 X53.975 Y69.325 E160.4605
G1 X54.025 Y69.325
G1 X54.16 Y69.325 E160.46394
G1 X56.945 Y69.325 E160.53486
G1 X56.945 Y70.675 E160.56923
G1 X54.416 Y70.675 E160.63363
G1 X54.066 Y69.606 E160.66228
G1 X54.025 Y69.478 E160.66492
G1 F2400 E158.16492
G0 F7200 X54.781 Y70.172
G0 X57.075 Y70.675
G0 X58.098 Y70.042
G0 X61.842 Y70.042
G0 X62.865 Y70.675
G0 X62.995 Y70.675
G1 F2400 E160.66492
G1 F3000 X62.995 Y69.325 E160.6993
G1 X65.827 Y69.325 E160.77141
G1 X65.828 Y69.325 E160.77144
G1 X66.057 Y69.325 E160.77727
G1 X65.995 Y69.546 E160.78079
G1 X65.678 Y70.675 E160.81065
G1 X63.193 Y70.675 E160.87393
G0 F2700 X62.995 Y70.675
G1 F2400 E158.37393
G0 F7200 X61.842 Y70.042
G0 X58.098 Y70.042
G0 X57.075 Y70.755
G0 X57.27 Y70.87
;TYPE:WALL-OUTER
G1 F2400 E160.87897
G1 F2250 X62.67 Y70.87 E161.01648
G1 X62.67 Y69 E161.0641
G1 X66.256 Y69 E161.15542
G1 X66.257 Y69 E161.15544
G1 X66.486 Y69 E161.16127
G1 X66.424 Y69.221 E161.16479
G1 X65.925 Y71 E161.21184
G1 X62.67 Y71 E161.29473
G1 X57.27 Y71 E161.3458
G1 X54.18 Y71 E161.42449
G1 X53.716 Y69.579 E161.46256
G1 X53.601 Y69.229 E161.47194
G1 X53.526 Y69 E161.47807
G1 X53.766 Y69 E161.48171
G1 X53.767 Y69 E161.48173
G1 X57.27 Y69 E161.57094
G1 X57.27 Y70.474 E161.60847
G0 F2025 X57.27 Y70.87
G0 F7200 X57.47 Y70.87
G0 X57.025 Y70.755
G0 X56.307 Y70.24
G0 X56.307 Y70.166
;TYPE:SKIN
G1 F2400 E161.61856
G1 F1200 X55.972 Y69.831 E161.63062
G0 F7200 X55.812 Y70.166
G1 F1200 X55.477 Y69.831 E161.64268
G0 F7200 X55.317 Y70.166
G1 F1200 X54.982 Y69.831 E161.65475
G0 F7200 X54.764 Y70.108
G1 F1200 X54.822 Y70.166 E161.65684
G1 F2400 E159.15684
G0 F7200 X54.822 Y70.24
G0 X57.075 Y70.24
G0 X58.098 Y70.042
G0 X61.842 Y70.042
G0 X62.865 Y70.24
G0 X63.732 Y70.24
G0 X63.732 Y70.166
G1 F2400 E161.65684
G1 F1200 X63.501 Y69.936 E161.66514
G0 F7200 X63.891 Y69.831
G1 F1200 X64.227 Y70.166 E161.67722
G0 F7200 X64.386 Y69.831
G1 F1200 X64.722 Y70.166 E161.6893
G0 F7200 X64.881 Y69.831
G1 F1200 X65.217 Y70.166 E161.70138
G0 F7200 X65.217 Y70.475
G1 F2400 E159.20138
;MESH:NONMESH
G0 F600 X65.217 Y70.475 Z1.62
G0 F7200 X63.502 Y70.168
G0 X62.859 Y69.189
G0 X62.859 Y68.16
G0 X53.468 Y61.517
G0 X52.6 Y58.853
G0 X57.081 Y53.84
G0 X57.081 Y52.811
G0 X54.67 Y52.325
;TIME_ELAPSED:213.971016
;LAYER:3
;TYPE:WALL-INNER
;MESH:alarm door v 3.stl(1)
G1 F2400 E161.70138
G1 F3000 X54.532 Y51.904 E161.71267
G1 X54.458 Y51.675 E161.7188
G1 X54.698 Y51.675 E161.72244
G1 X54.699 Y51.675 E161.72246
G1 X56.595 Y51.675 E161.77074
G1 X56.595 Y52.325 E161.7873
G1 X55 Y52.325 E161.82791
G0 F2700 X54.67 Y52.325
G1 F2400 E159.32791
G0 F7200 X56.438 Y52.168
G0 X58.11 Y51.896
G0 X61.83 Y51.896
G0 X62.865 Y51.896
G0 X65.382 Y51.836
G0 X65.533 Y51.896
G1 F2400 E161.83632
G1 F3000 X65.413 Y52.325 E161.84766
G1 X63.345 Y52.325 E161.90032
G1 X63.345 Y51.675 E161.91687
G1 X65.365 Y51.675 E161.96831
G1 X65.366 Y51.675 E161.96834
G1 X65.595 Y51.675 E161.97417
G1 X65.533 Y51.896 E161.97768
G0 F7200 X62.995 Y52.675
G1 F3000 X62.995 Y51.325 E162.01206
G1 X65.827 Y51.325 E162.08418
G1 X65.828 Y51.325 E162.0842
G1 X66.057 Y51.325 E162.09003
G1 X65.995 Y51.546 E162.09355
G1 X65.678 Y52.675 E162.12341
G1 X63.193 Y52.675 E162.18669
G0 F2700 X62.995 Y52.675
G1 F2400 E159.68669
G0 F7200 X62.865 Y51.758
G0 X61.83 Y51.758
G0 X58.11 Y51.758
G0 X57.075 Y51.758
G0 X54.116 Y51.758
G1 F2400 E162.19173
G1 F3000 X54.049 Y51.554 E162.1972
G1 X53.974 Y51.325 E162.20334
G1 X54.214 Y51.325 E162.20697
G1 X54.215 Y51.325 E162.207
G1 X56.945 Y51.325 E162.27652
G1 X56.945 Y52.675 E162.3109
G1 X54.416 Y52.675 E162.3753
G1 X54.289 Y52.289 E162.38564
G0 F2700 X54.116 Y51.758
G0 F7200 X54.714 Y52.13
G0 X57.025 Y52.755
G0 X57.27 Y52.87
;TYPE:WALL-OUTER
G1 F2400 E162.39988
G1 F2250 X62.67 Y52.87 E162.53739
G1 X62.67 Y51 E162.58501
G1 X66.256 Y51 E162.67632
G1 X66.257 Y51 E162.67635
G1 X66.486 Y51 E162.68218
G1 X66.424 Y51.221 E162.6857
G1 X65.925 Y53 E162.73275
G1 X62.67 Y53 E162.81563
G1 X57.27 Y53 E162.86671
G1 X54.18 Y53 E162.9454
G1 X53.807 Y51.859 E162.97596
G1 X53.6 Y51.229 E162.99285
G1 X53.526 Y51 E162.99898
G1 X53.766 Y51 E163.00262
G1 X53.767 Y51 E163.00265
G1 X57.27 Y51 E163.09185
G1 X57.27 Y52.474 E163.12938
G0 F2025 X57.27 Y52.87
G0 F7200 X57.47 Y52.87
G0 X57.025 Y52.755
G0 X56.51 Y51.962
G0 X56.437 Y51.962
;TYPE:SKIN
G1 F2400 E163.13947
G1 F1200 X56.231 Y52.168 E163.14689
G0 F7200 X56.072 Y51.832
G1 F1200 X55.736 Y52.168 E163.15899
G0 F7200 X55.577 Y51.832
G1 F1200 X55.241 Y52.168 E163.17109
G0 F7200 X55.082 Y51.832
G1 F1200 X54.774 Y52.139 E163.18216
G1 F2400 E160.68216
G0 F7200 X54.705 Y52.159
G0 X57.075 Y52.24
G0 X58.098 Y52.042
G0 X61.842 Y52.042
G0 X62.865 Y52.24
G0 X63.655 Y52.24
G0 X63.655 Y52.168
G1 F2400 E163.18216
G1 F1200 X63.991 Y51.832 E163.19426
G0 F7200 X64.15 Y52.168
G1 F1200 X64.486 Y51.832 E163.20636
G0 F7200 X64.645 Y52.168
G1 F1200 X64.981 Y51.832 E163.21846
G0 F7200 X65.14 Y52.168
G1 F1200 X65.352 Y51.956 E163.2261
G0 F7200 X65.65 Y52.04
G1 F2400 E160.7261
;MESH:alarm door v 3.stl
G0 F7200 X65.533 Y52.805
G0 X65.533 Y53.84
G0 X65.533 Y58.16
G0 X65.533 Y59.195
G0 X65.533 Y59.896
;TYPE:WALL-INNER
G1 F2400 E163.2261
G1 F3000 X65.413 Y60.325 E163.23744
G1 X63.345 Y60.325 E163.2901
G1 X63.345 Y59.675 E163.30665
G1 X65.365 Y59.675 E163.35809
G1 X65.366 Y59.675 E163.35812
G1 X65.595 Y59.675 E163.36395
G1 X65.533 Y59.896 E163.36747
G1 F2400 E160.86747
G0 F7200 X62.865 Y60.325
G0 X61.842 Y60.042
G0 X58.098 Y60.042
G0 X57.075 Y60.325
G0 X54.67 Y60.325
G1 F2400 E163.36747
G1 F3000 X54.532 Y59.904 E163.37875
G1 X54.458 Y59.675 E163.38488
G1 X54.698 Y59.675 E163.38852
G1 X54.699 Y59.675 E163.38854
G1 X56.595 Y59.675 E163.43682
G1 X56.595 Y60.325 E163.45338
G1 X55 Y60.325 E163.49399
G0 F2700 X54.67 Y60.325
G0 F7200 X54.116 Y59.758
G1 F2400 E163.5024
G1 F3000 X54.049 Y59.554 E163.50786
G1 X53.974 Y59.325 E163.514
G1 X54.214 Y59.325 E163.51764
G1 X54.215 Y59.325 E163.51766
G1 X56.945 Y59.325 E163.58718
G1 X56.945 Y60.675 E163.62156
G1 X54.416 Y60.675 E163.68596
G1 X54.289 Y60.289 E163.69631
G0 F2700 X54.116 Y59.758
G1 F2400 E161.19631
G0 F7200 X54.714 Y60.13
G0 X57.075 Y60.675
G0 X58.098 Y60.042
G0 X61.842 Y60.042
G0 X62.865 Y60.675
G0 X62.995 Y60.675
G1 F2400 E163.71054
G1 F3000 X62.995 Y59.325 E163.74492
G1 X65.827 Y59.325 E163.81703
G1 X65.828 Y59.325 E163.81706
G1 X66.057 Y59.325 E163.82289
G1 X65.995 Y59.546 E163.82641
G1 X65.678 Y60.675 E163.85627
G1 X63.193 Y60.675 E163.91955
G0 F2700 X62.995 Y60.675
G1 F2400 E161.41955
G0 F7200 X61.842 Y60.042
G0 X58.098 Y60.042
G0 X57.075 Y60.755
G0 X57.27 Y60.87
;TYPE:WALL-OUTER
G1 F2400 E163.92459
G1 F2250 X62.67 Y60.87 E164.0621
G1 X62.67 Y59 E164.10972
G1 X66.256 Y59 E164.20104
G1 X66.257 Y59 E164.20106
G1 X66.486 Y59 E164.20689
G1 X66.424 Y59.221 E164.21041
G1 X65.925 Y61 E164.25746
G1 X62.67 Y61 E164.34035
G1 X57.27 Y61 E164.39142
G1 X54.18 Y61 E164.47011
G1 X53.807 Y59.859 E164.50068
G1 X53.6 Y59.229 E164.51756
G1 X53.526 Y59 E164.52369
G1 X53.766 Y59 E164.52733
G1 X53.767 Y59 E164.52736
G1 X57.27 Y59 E164.61656
G1 X57.27 Y60.474 E164.6541
G0 F2025 X57.27 Y60.87
G0 F7200 X57.47 Y60.87
G0 X57.025 Y60.755
G0 X56.151 Y60.24
G0 X56.151 Y60.167
;TYPE:SKIN
G1 F2400 E164.66418
G1 F1200 X56.437 Y59.881 E164.67448
G0 F7200 X55.992 Y59.831
G1 F1200 X55.656 Y60.167 E164.68658
G0 F7200 X55.497 Y59.831
G1 F1200 X55.161 Y60.167 E164.69868
G0 F7200 X55.003 Y59.831
G1 F1200 X54.755 Y60.078 E164.70759
G1 F2400 E162.20759
G0 F7200 X54.685 Y60.098
G0 X57.075 Y60.24
G0 X58.098 Y60.042
G0 X61.842 Y60.042
G0 X62.865 Y60.24
G0 X63.575 Y60.24
G0 X63.575 Y60.168
G1 F2400 E164.70759
G1 F1200 X63.911 Y59.831 E164.71971
G0 F7200 X64.07 Y60.168
G1 F1200 X64.406 Y59.831 E164.73183
G0 F7200 X64.565 Y60.168
G1 F1200 X64.901 Y59.831 E164.74395
G0 F7200 X65.06 Y60.168
G1 F1200 X65.382 Y59.845 E164.75556
G0 F7200 X65.63 Y59.649
G1 F2400 E162.25556
;MESH:alarm door v 3.stl(2)
G0 F7200 X65.533 Y60.805
G0 X65.533 Y61.84
G0 X65.533 Y68.16
G0 X65.533 Y69.195
G0 X65.533 Y69.896
;TYPE:WALL-INNER
G1 F2400 E164.75556
G1 F3000 X65.413 Y70.325 E164.76691
G1 X63.345 Y70.325 E164.81957
G1 X63.345 Y69.675 E164.83612
G1 X65.365 Y69.675 E164.88756
G1 X65.366 Y69.675 E164.88758
G1 X65.595 Y69.675 E164.89342
G1 X65.533 Y69.896 E164.89693
G1 F2400 E162.39693
G0 F7200 X62.865 Y70.325
G0 X61.842 Y70.042
G0 X58.098 Y70.042
G0 X57.075 Y70.325
G0 X54.67 Y70.325
G1 F2400 E164.89693
G1 F3000 X54.532 Y69.904 E164.90821
G1 X54.458 Y69.675 E164.91434
G1 X54.698 Y69.675 E164.91798
G1 X54.699 Y69.675 E164.91801
G1 X56.595 Y69.675 E164.96629
G1 X56.595 Y70.325 E164.98284
G1 X55 Y70.325 E165.02346
G0 F2700 X54.67 Y70.325
G0 F7200 X54.116 Y69.758
G1 F2400 E165.03186
G1 F3000 X54.049 Y69.554 E165.03733
G1 X53.974 Y69.325 E165.04347
G1 X54.214 Y69.325 E165.0471
G1 X54.215 Y69.325 E165.04713
G1 X56.945 Y69.325 E165.11665
G1 X56.945 Y70.675 E165.15102
G1 X54.416 Y70.675 E165.21542
G1 X54.289 Y70.289 E165.22577
G0 F2700 X54.116 Y69.758
G1 F2400 E162.72577
G0 F7200 X54.714 Y70.13
G0 X57.075 Y70.675
G0 X58.098 Y70.042
G0 X61.842 Y70.042
G0 X62.865 Y70.675
G0 X62.995 Y70.675
G1 F2400 E165.24001
G1 F3000 X62.995 Y69.325 E165.27438
G1 X65.827 Y69.325 E165.3465
G1 X65.828 Y69.325 E165.34653
G1 X66.057 Y69.325 E165.35236
G1 X65.995 Y69.546 E165.35587
G1 X65.678 Y70.675 E165.38573
G1 X63.193 Y70.675 E165.44901
G0 F2700 X62.995 Y70.675
G1 F2400 E162.94901
G0 F7200 X61.842 Y70.042
G0 X58.098 Y70.042
G0 X57.075 Y70.755
G0 X57.27 Y70.87
;TYPE:WALL-OUTER
G1 F2400 E165.45406
G1 F2250 X62.67 Y70.87 E165.59157
G1 X62.67 Y69 E165.63919
G1 X66.256 Y69 E165.7305
G1 X66.257 Y69 E165.73053
G1 X66.486 Y69 E165.73636
G1 X66.424 Y69.221 E165.73988
G1 X65.925 Y71 E165.78693
G1 X62.67 Y71 E165.86981
G1 X57.27 Y71 E165.92089
G1 X54.18 Y71 E165.99957
G1 X53.807 Y69.859 E166.03014
G1 X53.6 Y69.229 E166.04703
G1 X53.526 Y69 E166.05316
G1 X53.766 Y69 E166.0568
G1 X53.767 Y69 E166.05683
G1 X57.27 Y69 E166.14603
G1 X57.27 Y70.474 E166.18356
G0 F2025 X57.27 Y70.87
G0 F7200 X57.47 Y70.87
G0 X57.025 Y70.755
G0 X56.387 Y69.76
G0 X56.387 Y69.831
;TYPE:SKIN
G1 F2400 E166.19365
G1 F1200 X56.05 Y70.167 E166.20577
G0 F7200 X55.892 Y69.831
G1 F1200 X55.555 Y70.167 E166.21788
G0 F7200 X55.397 Y69.831
G1 F1200 X55.06 Y70.167 E166.23
G0 F7200 X54.73 Y70.002
G1 F1200 X54.902 Y69.831 E166.23618
G1 F2400 E163.73618
G0 F7200 X54.902 Y69.76
G0 X56.438 Y69.832
G0 X57.075 Y70.21
G0 X58.098 Y70.042
G0 X61.842 Y70.042
G0 X62.865 Y70.21
G0 X63.502 Y70.14
G1 F2400 E166.23618
G1 F1200 X63.812 Y69.831 E166.24732
G0 F7200 X63.97 Y70.167
G1 F1200 X64.307 Y69.831 E166.25944
G0 F7200 X64.465 Y70.167
G1 F1200 X64.802 Y69.831 E166.27156
G0 F7200 X64.96 Y70.167
G1 F1200 X65.297 Y69.831 E166.28368
G0 F7200 X65.297 Y69.525
G1 F2400 E163.78368
;MESH:NONMESH
G0 F600 X65.297 Y69.525 Z1.795
G0 F7200 X62.859 Y69.189
G0 X62.859 Y68.16
G0 X53.468 Y61.517
G0 X52.6 Y58.855
G0 X57.081 Y53.84
G0 X57.081 Y52.811
G0 X54.781 Y52.172
G0 X54.541 Y51.929
;TIME_ELAPSED:227.301689
;LAYER:4
;TYPE:WALL-INNER
;MESH:alarm door v 3.stl(1)
G1 F2400 E166.28368
G1 F3000 X54.458 Y51.675 E166.29048
G1 X54.541 Y51.675
G1 X54.607 Y51.675 E166.29216
G1 X56.595 Y51.675 E166.34279
G1 X56.595 Y52.325 E166.35934
G1 X54.67 Y52.325 E166.40836
G1 X54.561 Y51.991 E166.41731
G1 X54.541 Y51.929 E166.4187
G1 F2400 E163.9187
G0 F7200 X56.103 Y51.834
G0 X57.075 Y51.896
G0 X58.11 Y51.896
G0 X61.83 Y51.896
G0 X62.865 Y51.896
G0 X65.382 Y51.836
G0 X65.533 Y51.896
G1 F2400 E166.4187
G1 F3000 X65.413 Y52.325 E166.43004
G1 X63.345 Y52.325 E166.4827
G1 X63.345 Y51.675 E166.49925
G1 X65.365 Y51.675 E166.55069
G1 X65.366 Y51.675 E166.55072
G1 X65.595 Y51.675 E166.55655
G1 X65.533 Y51.896 E166.56006
G0 F7200 X62.995 Y52.675
G1 F3000 X62.995 Y51.325 E166.59444
G1 X65.827 Y51.325 E166.66656
G1 X65.828 Y51.325 E166.66658
G1 X66.057 Y51.325 E166.67241
G1 X65.995 Y51.546 E166.67593
G1 X65.678 Y52.675 E166.70579
G1 X63.193 Y52.675 E166.76907
G0 F2700 X62.995 Y52.675
G1 F2400 E164.26907
G0 F7200 X61.83 Y52.038
G0 X58.11 Y52.038
G0 X57.075 Y52.038
G0 X54.947 Y52.171
G0 X54.208 Y52.038
G1 F2400 E166.77411
G1 F3000 X54.049 Y51.554 E166.78709
G1 X53.975 Y51.325 E166.79322
G1 X54.215 Y51.325 E166.79686
G1 X54.216 Y51.325 E166.79688
G1 X56.945 Y51.325 E166.86638
G1 X56.945 Y52.675 E166.90075
G1 X54.416 Y52.675 E166.96515
G1 X54.374 Y52.548 E166.96856
G0 F2700 X54.208 Y52.038
G0 F7200 X57.025 Y52.755
G0 X57.27 Y52.87
;TYPE:WALL-OUTER
G1 F2400 E166.98223
G1 F2250 X62.67 Y52.87 E167.11974
G1 X62.67 Y51 E167.16736
G1 X66.256 Y51 E167.25868
G1 X66.257 Y51 E167.25871
G1 X66.486 Y51 E167.26454
G1 X66.424 Y51.221 E167.26805
G1 X65.925 Y53 E167.3151
G1 X62.67 Y53 E167.39799
G1 X57.27 Y53 E167.44907
G1 X54.18 Y53 E167.52775
G1 X53.899 Y52.139 E167.55082
G1 X53.601 Y51.229 E167.5752
G1 X53.526 Y51 E167.58134
G1 X53.766 Y51 E167.58497
G1 X53.767 Y51 E167.585
G1 X57.27 Y51 E167.6742
G1 X57.27 Y52.474 E167.71174
G0 F2025 X57.27 Y52.87
G0 F7200 X57.47 Y52.87
G0 X57.025 Y52.755
G0 X56.51 Y51.982
G0 X56.437 Y51.982
;TYPE:SKIN
G1 F2400 E167.72182
G1 F1200 X56.287 Y51.832 E167.72722
G0 F7200 X56.128 Y52.168
G1 F1200 X55.792 Y51.832 E167.73932
G0 F7200 X55.633 Y52.168
G1 F1200 X55.297 Y51.832 E167.75142
G0 F7200 X55.138 Y52.168
G1 F1200 X54.802 Y51.832 E167.76352
G1 F2400 E165.26352
G0 F7200 X54.802 Y51.76
G0 X56.438 Y51.832
G0 X57.075 Y52.24
G0 X58.098 Y52.042
G0 X61.842 Y52.042
G0 X62.865 Y52.24
G0 X63.552 Y52.168
G1 F2400 E167.76352
G1 F1200 X63.501 Y52.116 E167.76538
G0 F7200 X63.711 Y51.832
G1 F1200 X64.047 Y52.168 E167.77748
G0 F7200 X64.206 Y51.832
G1 F1200 X64.542 Y52.168 E167.78958
G0 F7200 X64.701 Y51.832
G1 F1200 X65.037 Y52.168 E167.80168
G0 F7200 X65.345 Y51.981
G1 F1200 X65.196 Y51.832 E167.80704
G0 F7200 X65.196 Y51.525
G1 F2400 E165.30704
;MESH:alarm door v 3.stl
G0 F7200 X65.533 Y52.805
G0 X65.533 Y53.84
G0 X65.533 Y58.16
G0 X65.533 Y59.195
G0 X65.533 Y59.896
;TYPE:WALL-INNER
G1 F2400 E167.80704
G1 F3000 X65.413 Y60.325 E167.81839
G1 X63.345 Y60.325 E167.87105
G1 X63.345 Y59.675 E167.8876
G1 X65.365 Y59.675 E167.93904
G1 X65.366 Y59.675 E167.93906
G1 X65.595 Y59.675 E167.9449
G1 X65.533 Y59.896 E167.94841
G1 F2400 E165.44841
G0 F7200 X63.69 Y59.833
G0 X62.865 Y59.929
G0 X61.83 Y59.929
G0 X58.11 Y59.929
G0 X57.075 Y59.929
G0 X54.68 Y59.838
G0 X54.541 Y59.929
G1 F2400 E167.94841
G1 F3000 X54.458 Y59.675 E167.95522
G1 X54.541 Y59.675
G1 X54.607 Y59.675 E167.9569
G1 X56.595 Y59.675 E168.00752
G1 X56.595 Y60.325 E168.02407
G1 X54.67 Y60.325 E168.07309
G1 X54.561 Y59.991 E168.08204
G1 X54.541 Y59.929 E168.08343
G0 F7200 X54.208 Y60.038
G1 F3000 X54.049 Y59.554 E168.0964
G1 X53.975 Y59.325 E168.10253
G1 X54.215 Y59.325 E168.10617
G1 X54.216 Y59.325 E168.1062
G1 X56.945 Y59.325 E168.17569
G1 X56.945 Y60.675 E168.21007
G1 X54.416 Y60.675 E168.27447
G1 X54.374 Y60.548 E168.27787
G0 F2700 X54.208 Y60.038
G1 F2400 E165.77787
G0 F7200 X57.075 Y60.675
G0 X58.098 Y60.042
G0 X61.842 Y60.042
G0 X62.865 Y60.675
G0 X62.995 Y60.675
G1 F2400 E168.29155
G1 F3000 X62.995 Y59.325 E168.32593
G1 X65.827 Y59.325 E168.39804
G1 X65.828 Y59.325 E168.39807
G1 X66.057 Y59.325 E168.4039
G1 X65.995 Y59.546 E168.40741
G1 X65.678 Y60.675 E168.43728
G1 X63.193 Y60.675 E168.50056
G0 F2700 X62.995 Y60.675
G1 F2400 E166.00056
G0 F7200 X61.842 Y60.042
G0 X58.098 Y60.042
G0 X57.075 Y60.755
G0 X57.27 Y60.87
;TYPE:WALL-OUTER
G1 F2400 E168.5056
G1 F2250 X62.67 Y60.87 E168.64311
G1 X62.67 Y59 E168.69073
G1 X66.256 Y59 E168.78204
G1 X66.257 Y59 E168.78207
G1 X66.486 Y59 E168.7879
G1 X66.424 Y59.221 E168.79142
G1 X65.925 Y61 E168.83847
G1 X62.67 Y61 E168.92136
G1 X57.27 Y61 E168.97243
G1 X54.18 Y61 E169.05112
G1 X53.899 Y60.139 E169.07418
G1 X53.601 Y59.229 E169.09856
G1 X53.526 Y59 E169.1047
G1 X53.766 Y59 E169.10834
G1 X53.767 Y59 E169.10836
G1 X57.27 Y59 E169.19756
G1 X57.27 Y60.474 E169.2351
G0 F2025 X57.27 Y60.87
G0 F7200 X57.47 Y60.87
G0 X57.025 Y60.755
G0 X56.51 Y59.903
G0 X56.438 Y59.903
;TYPE:SKIN
G1 F2400 E169.24518
G1 F1200 X56.366 Y59.831 E169.24778
G0 F7200 X56.207 Y60.167
G1 F1200 X55.871 Y59.831 E169.25988
G0 F7200 X55.712 Y60.167
G1 F1200 X55.376 Y59.831 E169.27198
G0 F7200 X55.217 Y60.167
G1 F1200 X54.881 Y59.831 E169.28408
G1 F2400 E166.78408
G0 F7200 X54.881 Y59.76
G0 X56.438 Y59.832
G0 X57.075 Y60.24
G0 X58.098 Y60.042
G0 X61.842 Y60.042
G0 X62.865 Y60.24
G0 X63.632 Y60.24
G0 X63.632 Y60.167
G1 F2400 E169.28408
G1 F1200 X63.501 Y60.036 E169.28879
G0 F7200 X63.791 Y59.831
G1 F1200 X64.127 Y60.167 E169.30089
G0 F7200 X64.286 Y59.831
G1 F1200 X64.622 Y60.167 E169.31299
G0 F7200 X64.781 Y59.831
G1 F1200 X65.117 Y60.167 E169.32509
G0 F7200 X65.363 Y59.918
G1 F1200 X65.276 Y59.831 E169.32823
G0 F7200 X65.276 Y59.525
G1 F2400 E166.82823
;MESH:alarm door v 3.stl(2)
G0 F7200 X65.533 Y60.805
G0 X65.533 Y61.84
G0 X65.533 Y68.16
G0 X65.533 Y69.195
G0 X65.533 Y69.896
;TYPE:WALL-INNER
G1 F2400 E169.32823
G1 F3000 X65.413 Y70.325 E169.33957
G1 X63.345 Y70.325 E169.39223
G1 X63.345 Y69.675 E169.40879
G1 X65.365 Y69.675 E169.46022
G1 X65.366 Y69.675 E169.46025
G1 X65.595 Y69.675 E169.46608
G1 X65.533 Y69.896 E169.4696
G1 F2400 E166.9696
G0 F7200 X63.69 Y69.833
G0 X62.865 Y69.929
G0 X61.83 Y69.929
G0 X58.11 Y69.929
G0 X57.075 Y69.929
G0 X54.68 Y69.838
G0 X54.541 Y69.929
G1 F2400 E169.4696
G1 F3000 X54.458 Y69.675 E169.4764
G1 X54.541 Y69.675
G1 X54.607 Y69.675 E169.47808
G1 X56.595 Y69.675 E169.52871
G1 X56.595 Y70.325 E169.54526
G1 X54.67 Y70.325 E169.59428
G1 X54.561 Y69.991 E169.60322
G1 X54.541 Y69.929 E169.60461
G0 F7200 X54.208 Y70.038
G1 F3000 X54.049 Y69.554 E169.61759
G1 X53.975 Y69.325 E169.62371
G1 X54.215 Y69.325 E169.62736
G1 X54.216 Y69.325 E169.62738
G1 X56.945 Y69.325 E169.69687
G1 X56.945 Y70.675 E169.73125
G1 X54.416 Y70.675 E169.79565
G1 X54.374 Y70.548 E169.79906
G0 F2700 X54.208 Y70.038
G1 F2400 E167.29906
G0 F7200 X57.075 Y70.675
G0 X58.098 Y70.042
G0 X61.842 Y70.042
G0 X62.865 Y70.675
G0 X62.995 Y70.675
G1 F2400 E169.81273
G1 F3000 X62.995 Y69.325 E169.84711
G1 X65.827 Y69.325 E169.91923
G1 X65.828 Y69.325 E169.91925
G1 X66.057 Y69.325 E169.92508
G1 X65.995 Y69.546 E169.9286
G1 X65.678 Y70.675 E169.95846
G1 X63.193 Y70.675 E170.02174
G0 F2700 X62.995 Y70.675
G1 F2400 E167.52174
G0 F7200 X61.842 Y70.042
G0 X58.098 Y70.042
G0 X57.075 Y70.755
G0 X57.27 Y70.87
;TYPE:WALL-OUTER
G1 F2400 E170.02678
G1 F2250 X62.67 Y70.87 E170.16429
G1 X62.67 Y69 E170.21191
G1 X66.256 Y69 E170.30323
G1 X66.257 Y69 E170.30325
G1 X66.486 Y69 E170.30909
G1 X66.424 Y69.221 E170.3126
G1 X65.925 Y71 E170.35965
G1 X62.67 Y71 E170.44254
G1 X57.27 Y71 E170.49362
G1 X54.18 Y71 E170.5723
G1 X53.899 Y70.139 E170.59536
G1 X53.601 Y69.229 E170.61975
G1 X53.526 Y69 E170.62588
G1 X53.766 Y69 E170.62952
G1 X53.767 Y69 E170.62955
G1 X57.27 Y69 E170.71875
G1 X57.27 Y70.474 E170.75628
G0 F2025 X57.27 Y70.87
G0 F7200 X57.47 Y70.87
G0 X57.025 Y70.755
G0 X56.307 Y70.24
G0 X56.307 Y70.166
;TYPE:SKIN
G1 F2400 E170.76637
G1 F1200 X55.972 Y69.831 E170.77843
G0 F7200 X55.812 Y70.166
G1 F1200 X55.477 Y69.831 E170.7905
G0 F7200 X55.317 Y70.166
G1 F1200 X54.982 Y69.831 E170.80256
G0 F7200 X54.764 Y70.108
G1 F1200 X54.822 Y70.166 E170.80465
G1 F2400 E168.30465
G0 F7200 X54.822 Y70.24
G0 X57.075 Y70.24
G0 X58.098 Y70.042
G0 X61.842 Y70.042
G0 X62.865 Y70.24
G0 X63.732 Y70.24
G0 X63.732 Y70.166
G1 F2400 E170.80465
G1 F1200 X63.501 Y69.936 E170.81295
G0 F7200 X63.891 Y69.831
G1 F1200 X64.227 Y70.166 E170.82503
G0 F7200 X64.386 Y69.831
G1 F1200 X64.722 Y70.166 E170.83711
G0 F7200 X64.881 Y69.831
G1 F1200 X65.217 Y70.166 E170.8492
G0 F7200 X65.217 Y70.475
G1 F2400 E168.3492
;MESH:NONMESH
G0 F600 X65.217 Y70.475 Z1.97
G0 F7200 X63.502 Y70.168
G0 X62.859 Y69.189
G0 X62.859 Y68.16
G0 X53.468 Y61.517
G0 X52.6 Y58.853
G0 X57.081 Y53.84
G0 X57.081 Y52.811
G0 X54.632 Y52.209
;TIME_ELAPSED:240.594664
;LAYER:5
;TYPE:WALL-INNER
;MESH:alarm door v 3.stl(1)
G1 F2400 E170.8492
G1 F3000 X54.532 Y51.904 E170.85737
G1 X54.457 Y51.675 E170.86351
G1 X54.697 Y51.675 E170.86714
G1 X54.698 Y51.675 E170.86717
G1 X56.595 Y51.675 E170.91547
G1 X56.595 Y52.325 E170.93203
G1 X54.887 Y52.325 E170.97552
G0 F2700 X54.67 Y52.325
G0 X54.632 Y52.209
G1 F2400 E168.47552
G0 F7200 X56.438 Y52.168
G0 X58.11 Y51.896
G0 X61.83 Y51.896
G0 X62.865 Y51.896
G0 X65.382 Y51.836
G0 X65.533 Y51.896
G1 F2400 E170.98415
G1 F3000 X65.413 Y52.325 E170.9955
G1 X63.345 Y52.325 E171.04816
G1 X63.345 Y51.675 E171.06471
G1 X65.365 Y51.675 E171.11615
G1 X65.366 Y51.675 E171.11617
G1 X65.595 Y51.675 E171.12201
G1 X65.533 Y51.896 E171.12552
G0 F7200 X62.995 Y52.675
G1 F3000 X62.995 Y51.325 E171.1599
G1 X65.827 Y51.325 E171.23202
G1 X65.828 Y51.325 E171.23204
G1 X66.057 Y51.325 E171.23787
G1 X65.995 Y51.546 E171.24139
G1 X65.678 Y52.675 E171.27125
G1 X63.193 Y52.675 E171.33453
G0 F2700 X62.995 Y52.675
G1 F2400 E168.83453
G0 F7200 X62.865 Y51.554
G0 X61.83 Y51.554
G0 X58.11 Y51.554
G0 X57.075 Y51.554
G0 X54.049 Y51.554
G1 F2400 E171.33957
G1 F3000 X53.974 Y51.325 E171.34571
G1 X54.214 Y51.325 E171.34934
G1 X54.215 Y51.325 E171.34937
G1 X56.945 Y51.325 E171.41889
G1 X56.945 Y52.675 E171.45326
G1 X54.416 Y52.675 E171.51767
G1 X54.299 Y52.318 E171.52723
G1 X54.228 Y52.101 E171.53305
G0 F2700 X54.049 Y51.554
G0 F7200 X54.781 Y52.172
G0 X57.025 Y52.755
G0 X57.27 Y52.87
;TYPE:WALL-OUTER
G1 F2400 E171.54769
G1 F2250 X62.67 Y52.87 E171.6852
G1 X62.67 Y51 E171.73282
G1 X66.256 Y51 E171.82413
G1 X66.257 Y51 E171.82416
G1 X66.486 Y51 E171.82999
G1 X66.424 Y51.221 E171.83351
G1 X65.925 Y53 E171.88056
G1 X62.67 Y53 E171.96344
G1 X57.27 Y53 E172.01452
G1 X54.18 Y53 E172.09321
G1 X53.99 Y52.419 E172.10877
G1 X53.6 Y51.229 E172.14066
G1 X53.526 Y51 E172.14679
G1 X53.766 Y51 E172.15043
G1 X53.767 Y51 E172.15046
G1 X57.27 Y51 E172.23966
G1 X57.27 Y52.474 E172.27719
G0 F2025 X57.27 Y52.87
G0 F7200 X57.47 Y52.87
G0 X57.025 Y52.755
G0 X56.51 Y51.962
G0 X56.437 Y51.962
;TYPE:SKIN
G1 F2400 E172.28728
G1 F1200 X56.231 Y52.168 E172.2947
G0 F7200 X56.072 Y51.832
G1 F1200 X55.736 Y52.168 E172.3068
G0 F7200 X55.577 Y51.832
G1 F1200 X55.241 Y52.168 E172.3189
G0 F7200 X55.082 Y51.832
G1 F1200 X54.773 Y52.14 E172.33001
G1 F2400 E169.83001
G0 F7200 X54.705 Y52.16
G0 X57.075 Y52.24
G0 X58.098 Y52.042
G0 X61.842 Y52.042
G0 X62.865 Y52.24
G0 X63.655 Y52.24
G0 X63.655 Y52.168
G1 F2400 E172.33001
G1 F1200 X63.991 Y51.832 E172.34211
G0 F7200 X64.15 Y52.168
G1 F1200 X64.486 Y51.832 E172.35421
G0 F7200 X64.645 Y52.168
G1 F1200 X64.981 Y51.832 E172.36631
G0 F7200 X65.14 Y52.168
G1 F1200 X65.352 Y51.956 E172.37394
G0 F7200 X65.65 Y52.04
G1 F2400 E169.87394
;MESH:alarm door v 3.stl
G0 F7200 X65.533 Y52.805
G0 X65.533 Y53.84
G0 X65.533 Y58.16
G0 X65.533 Y59.195
G0 X65.533 Y59.896
;TYPE:WALL-INNER
G1 F2400 E172.37394
G1 F3000 X65.413 Y60.325 E172.38529
G1 X63.345 Y60.325 E172.43795
G1 X63.345 Y59.675 E172.4545
G1 X65.365 Y59.675 E172.50594
G1 X65.366 Y59.675 E172.50596
G1 X65.595 Y59.675 E172.5118
G1 X65.533 Y59.896 E172.51531
G1 F2400 E170.01531
G0 F7200 X62.865 Y60.209
G0 X61.842 Y60.042
G0 X58.098 Y60.042
G0 X57.075 Y60.209
G0 X54.632 Y60.209
G1 F2400 E172.51531
G1 F3000 X54.532 Y59.904 E172.52349
G1 X54.457 Y59.675 E172.52962
G1 X54.697 Y59.675 E172.53326
G1 X54.698 Y59.675 E172.53328
G1 X56.595 Y59.675 E172.58159
G1 X56.595 Y60.325 E172.59814
G1 X54.887 Y60.325 E172.64164
G0 F2700 X54.67 Y60.325
G0 X54.632 Y60.209
G0 F7200 X54.049 Y59.554
G1 F2400 E172.65027
G1 F3000 X53.974 Y59.325 E172.6564
G1 X54.214 Y59.325 E172.66004
G1 X54.215 Y59.325 E172.66006
G1 X56.945 Y59.325 E172.72958
G1 X56.945 Y60.675 E172.76396
G1 X54.416 Y60.675 E172.82836
G1 X54.299 Y60.318 E172.83793
G1 X54.228 Y60.101 E172.84374
G0 F2700 X54.049 Y59.554
G1 F2400 E170.34374
G0 F7200 X54.781 Y60.172
G0 X57.075 Y60.675
G0 X58.098 Y60.042
G0 X61.842 Y60.042
G0 X62.865 Y60.675
G0 X62.995 Y60.675
G1 F2400 E172.85838
G1 F3000 X62.995 Y59.325 E172.89276
G1 X65.827 Y59.325 E172.96488
G1 X65.828 Y59.325 E172.9649
G1 X66.057 Y59.325 E172.97074
G1 X65.995 Y59.546 E172.97425
G1 X65.678 Y60.675 E173.00411
G1 X63.193 Y60.675 E173.06739
G0 F2700 X62.995 Y60.675
G1 F2400 E170.56739
G0 F7200 X61.842 Y60.042
G0 X58.098 Y60.042
G0 X57.075 Y60.755
G0 X57.27 Y60.87
;TYPE:WALL-OUTER
G1 F2400 E173.07243
G1 F2250 X62.67 Y60.87 E173.20994
G1 X62.67 Y59 E173.25756
G1 X66.256 Y59 E173.34888
G1 X66.257 Y59 E173.34891
G1 X66.486 Y59 E173.35474
G1 X66.424 Y59.221 E173.35825
G1 X65.925 Y61 E173.4053
G1 X62.67 Y61 E173.48819
G1 X57.27 Y61 E173.53927
G1 X54.18 Y61 E173.61795
G1 X53.99 Y60.419 E173.63352
G1 X53.6 Y59.229 E173.66541
G1 X53.526 Y59 E173.67154
G1 X53.766 Y59 E173.67518
G1 X53.767 Y59 E173.6752
G1 X57.27 Y59 E173.76441
G1 X57.27 Y60.474 E173.80194
G0 F2025 X57.27 Y60.87
G0 F7200 X57.47 Y60.87
G0 X57.025 Y60.755
G0 X56.152 Y60.24
G0 X56.152 Y60.167
;TYPE:SKIN
G1 F2400 E173.81203
G1 F1200 X56.437 Y59.881 E173.82231
G0 F7200 X55.992 Y59.831
G1 F1200 X55.657 Y60.167 E173.83439
G0 F7200 X55.497 Y59.831
G1 F1200 X55.162 Y60.167 E173.84647
G0 F7200 X55.003 Y59.831
G1 F1200 X54.754 Y60.079 E173.85542
G1 F2400 E171.35542
G0 F7200 X54.686 Y60.099
G0 X57.075 Y60.24
G0 X58.098 Y60.042
G0 X61.842 Y60.042
G0 X62.865 Y60.24
G0 X63.575 Y60.24
G0 X63.575 Y60.168
G1 F2400 E173.85542
G1 F1200 X63.911 Y59.831 E173.86754
G0 F7200 X64.07 Y60.168
G1 F1200 X64.406 Y59.831 E173.87966
G0 F7200 X64.565 Y60.168
G1 F1200 X64.901 Y59.831 E173.89178
G0 F7200 X65.06 Y60.168
G1 F1200 X65.382 Y59.845 E173.90339
G0 F7200 X65.63 Y59.649
G1 F2400 E171.40339
;MESH:alarm door v 3.stl(2)
G0 F7200 X65.533 Y60.805
G0 X65.533 Y61.84
G0 X65.533 Y68.16
G0 X65.533 Y69.195
G0 X65.533 Y69.896
;TYPE:WALL-INNER
G1 F2400 E173.90339
G1 F3000 X65.413 Y70.325 E173.91473
G1 X63.345 Y70.325 E173.96739
G1 X63.345 Y69.675 E173.98395
G1 X65.365 Y69.675 E174.03539
G1 X65.366 Y69.675 E174.03541
G1 X65.595 Y69.675 E174.04124
G1 X65.533 Y69.896 E174.04476
G1 F2400 E171.54476
G0 F7200 X62.865 Y70.209
G0 X61.842 Y70.042
G0 X58.098 Y70.042
G0 X57.075 Y70.209
G0 X54.632 Y70.209
G1 F2400 E174.04476
G1 F3000 X54.532 Y69.904 E174.05293
G1 X54.457 Y69.675 E174.05907
G1 X54.697 Y69.675 E174.0627
G1 X54.698 Y69.675 E174.06273
G1 X56.595 Y69.675 E174.11104
G1 X56.595 Y70.325 E174.12759
G1 X54.887 Y70.325 E174.17108
G0 F2700 X54.67 Y70.325
G0 X54.632 Y70.209
G0 F7200 X54.049 Y69.554
G1 F2400 E174.17971
G1 F3000 X53.974 Y69.325 E174.18585
G1 X54.214 Y69.325 E174.18949
G1 X54.215 Y69.325 E174.18951
G1 X56.945 Y69.325 E174.25903
G1 X56.945 Y70.675 E174.29341
G1 X54.416 Y70.675 E174.35781
G1 X54.299 Y70.318 E174.36737
G1 X54.228 Y70.101 E174.37319
G0 F2700 X54.049 Y69.554
G1 F2400 E171.87319
G0 F7200 X54.781 Y70.172
G0 X57.075 Y70.675
G0 X58.098 Y70.042
G0 X61.842 Y70.042
G0 X62.865 Y70.675
G0 X62.995 Y70.675
G1 F2400 E174.38783
G1 F3000 X62.995 Y69.325 E174.42221
G1 X65.827 Y69.325 E174.49432
G1 X65.828 Y69.325 E174.49435
G1 X66.057 Y69.325 E174.50018
G1 X65.995 Y69.546 E174.5037
G1 X65.678 Y70.675 E174.53356
G1 X63.193 Y70.675 E174.59684
G0 F2700 X62.995 Y70.675
G1 F2400 E172.09684
G0 F7200 X61.842 Y70.042
G0 X58.098 Y70.042
G0 X57.075 Y70.755
G0 X57.27 Y70.87
;TYPE:WALL-OUTER
G1 F2400 E174.60188
G1 F2250 X62.67 Y70.87 E174.73939
G1 X62.67 Y69 E174.78701
G1 X66.256 Y69 E174.87833
G1 X66.257 Y69 E174.87835
G1 X66.486 Y69 E174.88418
G1 X66.424 Y69.221 E174.8877
G1 X65.925 Y71 E174.93475
G1 X62.67 Y71 E175.01764
G1 X57.27 Y71 E175.06871
G1 X54.18 Y71 E175.1474
G1 X53.99 Y70.419 E175.16297
G1 X53.6 Y69.229 E175.19485
G1 X53.526 Y69 E175.20098
G1 X53.766 Y69 E175.20462
G1 X53.767 Y69 E175.20465
G1 X57.27 Y69 E175.29385
G1 X57.27 Y70.474 E175.33139
G0 F2025 X57.27 Y70.87
G0 F7200 X57.47 Y70.87
G0 X57.025 Y70.755
G0 X56.387 Y69.76
G0 X56.387 Y69.831
;TYPE:SKIN
G1 F2400 E175.34147
G1 F1200 X56.051 Y70.166 E175.35355
G0 F7200 X55.892 Y69.831
G1 F1200 X55.556 Y70.166 E175.36564
G0 F7200 X55.397 Y69.831
G1 F1200 X55.061 Y70.166 E175.37772
G0 F7200 X54.73 Y70.003
G1 F1200 X54.902 Y69.831 E175.38391
G1 F2400 E172.88391
G0 F7200 X54.902 Y69.76
G0 X56.438 Y69.832
G0 X57.075 Y70.21
G0 X58.098 Y70.042
G0 X61.842 Y70.042
G0 X62.865 Y70.21
G0 X63.502 Y70.14
G1 F2400 E175.38391
G1 F1200 X63.812 Y69.831 E175.39506
G0 F7200 X63.97 Y70.167
G1 F1200 X64.307 Y69.831 E175.40718
G0 F7200 X64.465 Y70.167
G1 F1200 X64.802 Y69.831 E175.4193
G0 F7200 X64.96 Y70.167
G1 F1200 X65.297 Y69.831 E175.43141
G0 F7200 X65.297 Y69.525
G1 F2400 E172.93141
;MESH:NONMESH
G0 F600 X65.297 Y69.525 Z2.145
G0 F7200 X62.859 Y69.189
G0 X62.859 Y68.16
G0 X53.468 Y61.517
G0 X52.6 Y58.855
G0 X57.081 Y53.84
G0 X57.081 Y52.811
G0 X54.67 Y52.325
;TIME_ELAPSED:253.920537
;LAYER:6
;TYPE:WALL-INNER
;MESH:alarm door v 3.stl(1)
G1 F2400 E175.43141
G1 F3000 X54.532 Y51.904 E175.4427
G1 X54.457 Y51.675 E175.44883
G1 X54.697 Y51.675 E175.45247
G1 X54.698 Y51.675 E175.45249
G1 X56.595 Y51.675 E175.5008
G1 X56.595 Y52.325 E175.51735
G1 X55 Y52.325 E175.55797
G0 F2700 X54.67 Y52.325
G1 F2400 E173.05797
G0 F7200 X56.438 Y52.168
G0 X58.11 Y51.896
G0 X61.83 Y51.896
G0 X62.865 Y51.896
G0 X65.382 Y51.836
G0 X65.533 Y51.896
G1 F2400 E175.56637
G1 F3000 X65.413 Y52.325 E175.57771
G1 X63.345 Y52.325 E175.63038
G1 X63.345 Y51.675 E175.64693
G1 X65.365 Y51.675 E175.69837
G1 X65.366 Y51.675 E175.69839
G1 X65.595 Y51.675 E175.70422
G1 X65.533 Y51.896 E175.70774
G0 F7200 X62.995 Y52.675
G1 F3000 X62.995 Y51.325 E175.74212
G1 X65.827 Y51.325 E175.81423
G1 X65.828 Y51.325 E175.81426
G1 X66.057 Y51.325 E175.82009
G1 X65.995 Y51.546 E175.82361
G1 X65.678 Y52.675 E175.85347
G1 X63.193 Y52.675 E175.91675
G0 F2700 X62.995 Y52.675
G1 F2400 E173.41675
G0 F7200 X62.865 Y51.554
G0 X61.83 Y51.554
G0 X58.11 Y51.554
G0 X57.075 Y51.554
G0 X54.049 Y51.554
G1 F2400 E175.92179
G1 F3000 X53.974 Y51.325 E175.92793
G1 X54.214 Y51.325 E175.93156
G1 X54.215 Y51.325 E175.93159
G1 X56.945 Y51.325 E176.00111
G1 X56.945 Y52.675 E176.03548
G1 X54.416 Y52.675 E176.09988
G1 X54.227 Y52.1 E176.1153
G0 F2700 X54.049 Y51.554
G0 F7200 X54.781 Y52.172
G0 X57.025 Y52.755
G0 X57.27 Y52.87
;TYPE:WALL-OUTER
G1 F2400 E176.12994
G1 F2250 X62.67 Y52.87 E176.26745
G1 X62.67 Y51 E176.31507
G1 X66.256 Y51 E176.40638
G1 X66.257 Y51 E176.40641
G1 X66.486 Y51 E176.41224
G1 X66.424 Y51.221 E176.41576
G1 X65.925 Y53 E176.46281
G1 X62.67 Y53 E176.5457
G1 X57.27 Y53 E176.59677
G1 X54.18 Y53 E176.67546
G1 X53.6 Y51.229 E176.72291
G1 X53.526 Y51 E176.72904
G1 X53.766 Y51 E176.73268
G1 X53.767 Y51 E176.73271
G1 X57.27 Y51 E176.82191
G1 X57.27 Y52.474 E176.85945
G0 F2025 X57.27 Y52.87
G0 F7200 X57.47 Y52.87
G0 X57.025 Y52.755
G0 X56.51 Y51.982
G0 X56.437 Y51.982
;TYPE:SKIN
G1 F2400 E176.86953
G1 F1200 X56.287 Y51.832 E176.87493
G0 F7200 X56.127 Y52.167
G1 F1200 X55.792 Y51.832 E176.887
G0 F7200 X55.632 Y52.167
G1 F1200 X55.297 Y51.832 E176.89906
G0 F7200 X55.137 Y52.167
G1 F1200 X54.802 Y51.832 E176.91112
G1 F2400 E174.41112
G0 F7200 X54.802 Y51.76
G0 X56.438 Y51.832
G0 X57.075 Y52.24
G0 X58.098 Y52.042
G0 X61.842 Y52.042
G0 X62.865 Y52.24
G0 X63.552 Y52.168
G1 F2400 E176.91112
G1 F1200 X63.501 Y52.116 E176.91298
G0 F7200 X63.711 Y51.832
G1 F1200 X64.047 Y52.168 E176.92508
G0 F7200 X64.206 Y51.832
G1 F1200 X64.542 Y52.168 E176.93718
G0 F7200 X64.701 Y51.832
G1 F1200 X65.037 Y52.168 E176.94928
G0 F7200 X65.345 Y51.981
G1 F1200 X65.196 Y51.832 E176.95465
G0 F7200 X65.196 Y51.525
G1 F2400 E174.45465
;MESH:alarm door v 3.stl
G0 F7200 X65.533 Y52.805
G0 X65.533 Y53.84
G0 X65.533 Y58.16
G0 X65.533 Y59.195
G0 X65.533 Y59.896
;TYPE:WALL-INNER
G1 F2400 E176.95465
G1 F3000 X65.413 Y60.325 E176.96599
G1 X63.345 Y60.325 E177.01865
G1 X63.345 Y59.675 E177.0352
G1 X65.365 Y59.675 E177.08664
G1 X65.366 Y59.675 E177.08667
G1 X65.595 Y59.675 E177.0925
G1 X65.533 Y59.896 E177.09601
G1 F2400 E174.59601
G0 F7200 X62.865 Y60.325
G0 X61.842 Y60.042
G0 X58.098 Y60.042
G0 X57.075 Y60.325
G0 X54.67 Y60.325
G1 F2400 E177.09601
G1 F3000 X54.532 Y59.904 E177.1073
G1 X54.457 Y59.675 E177.11343
G1 X54.697 Y59.675 E177.11707
G1 X54.698 Y59.675 E177.11709
G1 X56.595 Y59.675 E177.1654
G1 X56.595 Y60.325 E177.18195
G1 X55 Y60.325 E177.22257
G0 F2700 X54.67 Y60.325
G0 F7200 X54.049 Y59.554
G1 F2400 E177.23097
G1 F3000 X53.974 Y59.325 E177.23711
G1 X54.214 Y59.325 E177.24074
G1 X54.215 Y59.325 E177.24077
G1 X56.945 Y59.325 E177.31029
G1 X56.945 Y60.675 E177.34466
G1 X54.416 Y60.675 E177.40906
G1 X54.227 Y60.1 E177.42448
G0 F2700 X54.049 Y59.554
G1 F2400 E174.92448
G0 F7200 X54.781 Y60.172
G0 X57.075 Y60.675
G0 X58.098 Y60.042
G0 X61.842 Y60.042
G0 X62.865 Y60.675
G0 X62.995 Y60.675
G1 F2400 E177.43912
G1 F3000 X62.995 Y59.325 E177.4735
G1 X65.827 Y59.325 E177.54561
G1 X65.828 Y59.325 E177.54564
G1 X66.057 Y59.325 E177.55147
G1 X65.995 Y59.546 E177.55499
G1 X65.678 Y60.675 E177.58485
G1 X63.193 Y60.675 E177.64813
G0 F2700 X62.995 Y60.675
G1 F2400 E175.14813
G0 F7200 X61.842 Y60.042
G0 X58.098 Y60.042
G0 X57.075 Y60.755
G0 X57.27 Y60.87
;TYPE:WALL-OUTER
G1 F2400 E177.65317
G1 F2250 X62.67 Y60.87 E177.79068
G1 X62.67 Y59 E177.8383
G1 X66.256 Y59 E177.92962
G1 X66.257 Y59 E177.92964
G1 X66.486 Y59 E177.93547
G1 X66.424 Y59.221 E177.93899
G1 X65.925 Y61 E177.98604
G1 X62.67 Y61 E178.06893
G1 X57.27 Y61 E178.12
G1 X54.18 Y61 E178.19869
G1 X53.6 Y59.229 E178.24614
G1 X53.526 Y59 E178.25227
G1 X53.766 Y59 E178.25591
G1 X53.767 Y59 E178.25594
G1 X57.27 Y59 E178.34514
G1 X57.27 Y60.474 E178.38268
G0 F2025 X57.27 Y60.87
G0 F7200 X57.47 Y60.87
G0 X57.025 Y60.755
G0 X56.51 Y59.903
G0 X56.438 Y59.903
;TYPE:SKIN
G1 F2400 E178.39276
G1 F1200 X56.366 Y59.831 E178.39535
G0 F7200 X56.207 Y60.167
G1 F1200 X55.871 Y59.831 E178.40745
G0 F7200 X55.712 Y60.167
G1 F1200 X55.376 Y59.831 E178.41955
G0 F7200 X55.217 Y60.167
G1 F1200 X54.881 Y59.831 E178.43165
G1 F2400 E175.93165
G0 F7200 X54.881 Y59.76
G0 X56.438 Y59.832
G0 X57.075 Y60.24
G0 X58.098 Y60.042
G0 X61.842 Y60.042
G0 X62.865 Y60.24
G0 X63.632 Y60.24
G0 X63.632 Y60.167
G1 F2400 E178.43165
G1 F1200 X63.501 Y60.036 E178.43637
G0 F7200 X63.791 Y59.831
G1 F1200 X64.127 Y60.167 E178.44847
G0 F7200 X64.286 Y59.831
G1 F1200 X64.622 Y60.167 E178.46057
G0 F7200 X64.781 Y59.831
G1 F1200 X65.117 Y60.167 E178.47267
G0 F7200 X65.363 Y59.918
G1 F1200 X65.276 Y59.831 E178.47581
G0 F7200 X65.276 Y59.525
G1 F2400 E175.97581
;MESH:alarm door v 3.stl(2)
G0 F7200 X65.533 Y60.805
G0 X65.533 Y61.84
G0 X65.533 Y68.16
G0 X65.533 Y69.195
G0 X65.533 Y69.896
;TYPE:WALL-INNER
G1 F2400 E178.47581
G1 F3000 X65.413 Y70.325 E178.48715
G1 X63.345 Y70.325 E178.53981
G1 X63.345 Y69.675 E178.55636
G1 X65.365 Y69.675 E178.6078
G1 X65.366 Y69.675 E178.60783
G1 X65.595 Y69.675 E178.61366
G1 X65.533 Y69.896 E178.61717
G1 F2400 E176.11717
G0 F7200 X62.865 Y70.325
G0 X61.842 Y70.042
G0 X58.098 Y70.042
G0 X57.075 Y70.325
G0 X54.67 Y70.325
G1 F2400 E178.61717
G1 F3000 X54.532 Y69.904 E178.62846
G1 X54.457 Y69.675 E178.63459
G1 X54.697 Y69.675 E178.63823
G1 X54.698 Y69.675 E178.63825
G1 X56.595 Y69.675 E178.68656
G1 X56.595 Y70.325 E178.70311
G1 X55 Y70.325 E178.74373
G0 F2700 X54.67 Y70.325
G0 F7200 X54.049 Y69.554
G1 F2400 E178.75213
G1 F3000 X53.974 Y69.325 E178.75827
G1 X54.214 Y69.325 E178.7619
G1 X54.215 Y69.325 E178.76193
G1 X56.945 Y69.325 E178.83145
G1 X56.945 Y70.675 E178.86583
G1 X54.416 Y70.675 E178.93023
G1 X54.227 Y70.1 E178.94564
G0 F2700 X54.049 Y69.554
G1 F2400 E176.44564
G0 F7200 X54.781 Y70.172
G0 X57.075 Y70.675
G0 X58.098 Y70.042
G0 X61.842 Y70.042
G0 X62.865 Y70.675
G0 X62.995 Y70.675
G1 F2400 E178.96028
G1 F3000 X62.995 Y69.325 E178.99466
G1 X65.827 Y69.325 E179.06677
G1 X65.828 Y69.325 E179.0668
G1 X66.057 Y69.325 E179.07263
G1 X65.995 Y69.546 E179.07615
G1 X65.678 Y70.675 E179.10601
G1 X63.193 Y70.675 E179.16929
G0 F2700 X62.995 Y70.675
G1 F2400 E176.66929
G0 F7200 X61.842 Y70.042
G0 X58.098 Y70.042
G0 X57.075 Y70.755
G0 X57.27 Y70.87
;TYPE:WALL-OUTER
G1 F2400 E179.17433
G1 F2250 X62.67 Y70.87 E179.31184
G1 X62.67 Y69 E179.35946
G1 X66.256 Y69 E179.45078
G1 X66.257 Y69 E179.4508
G1 X66.486 Y69 E179.45663
G1 X66.424 Y69.221 E179.46015
G1 X65.925 Y71 E179.5072
G1 X62.67 Y71 E179.59009
G1 X57.27 Y71 E179.64116
G1 X54.18 Y71 E179.71985
G1 X53.6 Y69.229 E179.7673
G1 X53.526 Y69 E179.77343
G1 X53.766 Y69 E179.77707
G1 X53.767 Y69 E179.7771
G1 X57.27 Y69 E179.8663
G1 X57.27 Y70.474 E179.90384
G0 F2025 X57.27 Y70.87
G0 F7200 X57.47 Y70.87
G0 X57.025 Y70.755
G0 X56.307 Y70.24
G0 X56.307 Y70.166
;TYPE:SKIN
G1 F2400 E179.91392
G1 F1200 X55.972 Y69.831 E179.92599
G0 F7200 X55.812 Y70.166
G1 F1200 X55.477 Y69.831 E179.93805
G0 F7200 X55.317 Y70.166
G1 F1200 X54.982 Y69.831 E179.95011
G0 F7200 X54.763 Y70.107
G1 F1200 X54.822 Y70.166 E179.95224
G1 F2400 E177.45224
G0 F7200 X54.822 Y70.24
G0 X57.075 Y70.24
G0 X58.098 Y70.042
G0 X61.842 Y70.042
G0 X62.865 Y70.24
G0 X63.732 Y70.24
G0 X63.732 Y70.166
G1 F2400 E179.95224
G1 F1200 X63.501 Y69.936 E179.96054
G0 F7200 X63.891 Y69.831
G1 F1200 X64.227 Y70.166 E179.97262
G0 F7200 X64.386 Y69.831
G1 F1200 X64.722 Y70.166 E179.9847
G0 F7200 X64.881 Y69.831
G1 F1200 X65.217 Y70.166 E179.99679
G0 F7200 X65.217 Y70.475
G1 F2400 E177.49679
;MESH:NONMESH
G0 F600 X65.217 Y70.475 Z2.32
G0 F7200 X63.502 Y70.168
G0 X62.859 Y69.189
G0 X62.859 Y68.16
G0 X53.468 Y61.517
G0 X52.6 Y58.855
G0 X57.081 Y53.84
G0 X57.081 Y52.811
G0 X54.67 Y52.325
;TIME_ELAPSED:267.319854
;LAYER:7
;TYPE:WALL-INNER
;MESH:alarm door v 3.stl(1)
G1 F2400 E179.99679
G1 F3000 X54.532 Y51.904 E180.00807
G1 X54.457 Y51.675 E180.01421
G1 X54.697 Y51.675 E180.01784
G1 X54.698 Y51.675 E180.01787
G1 X56.595 Y51.675 E180.06617
G1 X56.595 Y52.325 E180.08272
G1 X55 Y52.325 E180.12334
G0 F2700 X54.67 Y52.325
G1 F2400 E177.62334
G0 F7200 X56.438 Y52.168
G0 X58.11 Y51.896
G0 X61.83 Y51.896
G0 X62.865 Y51.896
G0 X65.382 Y51.836
G0 X65.533 Y51.896
G1 F2400 E180.13174
G1 F3000 X65.413 Y52.325 E180.14309
G1 X63.345 Y52.325 E180.19575
G1 X63.345 Y51.675 E180.2123
G1 X65.365 Y51.675 E180.26374
G1 X65.366 Y51.675 E180.26377
G1 X65.595 Y51.675 E180.2696
G1 X65.533 Y51.896 E180.27311
G0 F7200 X62.995 Y52.675
G1 F3000 X62.995 Y51.325 E180.30749
G1 X65.827 Y51.325 E180.37961
G1 X65.828 Y51.325 E180.37963
G1 X66.057 Y51.325 E180.38546
G1 X65.995 Y51.546 E180.38898
G1 X65.678 Y52.675 E180.41884
G1 X63.193 Y52.675 E180.48212
G0 F2700 X62.995 Y52.675
G1 F2400 E177.98212
G0 F7200 X62.865 Y51.554
G0 X61.83 Y51.554
G0 X58.11 Y51.554
G0 X57.075 Y51.554
G0 X54.049 Y51.554
G1 F2400 E180.48716
G1 F3000 X53.974 Y51.325 E180.4933
G1 X54.214 Y51.325 E180.49693
G1 X54.215 Y51.325 E180.49696
G1 X56.945 Y51.325 E180.56648
G1 X56.945 Y52.675 E180.60086
G1 X54.416 Y52.675 E180.66526
G1 X54.227 Y52.1 E180.68067
G0 F2700 X54.049 Y51.554
G0 F7200 X54.781 Y52.172
G0 X57.025 Y52.755
G0 X57.27 Y52.87
;TYPE:WALL-OUTER
G1 F2400 E180.69531
G1 F2250 X62.67 Y52.87 E180.83282
G1 X62.67 Y51 E180.88044
G1 X66.256 Y51 E180.97176
G1 X66.257 Y51 E180.97178
G1 X66.486 Y51 E180.97761
G1 X66.424 Y51.221 E180.98113
G1 X65.925 Y53 E181.02818
G1 X62.67 Y53 E181.11107
G1 X57.27 Y53 E181.16214
G1 X54.18 Y53 E181.24083
G1 X53.6 Y51.229 E181.28829
G1 X53.526 Y51 E181.29441
G1 X53.766 Y51 E181.29806
G1 X53.767 Y51 E181.29808
G1 X57.27 Y51 E181.38728
G1 X57.27 Y52.474 E181.42482
G0 F2025 X57.27 Y52.87
G0 F7200 X57.47 Y52.87
G0 X57.025 Y52.755
G0 X56.51 Y51.962
G0 X56.437 Y51.962
;TYPE:SKIN
G1 F2400 E181.4349
G1 F1200 X56.231 Y52.168 E181.44232
G0 F7200 X56.072 Y51.832
G1 F1200 X55.736 Y52.168 E181.45442
G0 F7200 X55.577 Y51.832
G1 F1200 X55.241 Y52.168 E181.46652
G0 F7200 X55.082 Y51.832
G1 F1200 X54.773 Y52.14 E181.47763
G1 F2400 E178.97763
G0 F7200 X54.705 Y52.16
G0 X57.075 Y52.24
G0 X58.098 Y52.042
G0 X61.842 Y52.042
G0 X62.865 Y52.24
G0 X63.655 Y52.24
G0 X63.655 Y52.168
G1 F2400 E181.47763
G1 F1200 X63.991 Y51.832 E181.48973
G0 F7200 X64.15 Y52.168
G1 F1200 X64.486 Y51.832 E181.50183
G0 F7200 X64.645 Y52.168
G1 F1200 X64.981 Y51.832 E181.51393
G0 F7200 X65.14 Y52.168
G1 F1200 X65.352 Y51.956 E181.52157
G0 F7200 X65.65 Y52.04
G1 F2400 E179.02157
;MESH:alarm door v 3.stl
G0 F7200 X65.533 Y52.805
G0 X65.533 Y53.84
G0 X65.533 Y58.16
G0 X65.533 Y59.195
G0 X65.533 Y59.896
;TYPE:WALL-INNER
G1 F2400 E181.52157
G1 F3000 X65.413 Y60.325 E181.53291
G1 X63.345 Y60.325 E181.58557
G1 X63.345 Y59.675 E181.60212
G1 X65.365 Y59.675 E181.65356
G1 X65.366 Y59.675 E181.65359
G1 X65.595 Y59.675 E181.65942
G1 X65.533 Y59.896 E181.66294
G1 F2400 E179.16294
G0 F7200 X62.865 Y60.325
G0 X61.842 Y60.042
G0 X58.098 Y60.042
G0 X57.075 Y60.325
G0 X54.67 Y60.325
G1 F2400 E181.66294
G1 F3000 X54.532 Y59.904 E181.67422
G1 X54.457 Y59.675 E181.68035
G1 X54.697 Y59.675 E181.68399
G1 X54.698 Y59.675 E181.68401
G1 X56.595 Y59.675 E181.73232
G1 X56.595 Y60.325 E181.74887
G1 X55 Y60.325 E181.78949
G0 F2700 X54.67 Y60.325
G0 F7200 X54.049 Y59.554
G1 F2400 E181.79789
G1 F3000 X53.974 Y59.325 E181.80403
G1 X54.214 Y59.325 E181.80766
G1 X54.215 Y59.325 E181.80769
G1 X56.945 Y59.325 E181.87721
G1 X56.945 Y60.675 E181.91159
G1 X54.416 Y60.675 E181.97599
G1 X54.227 Y60.1 E181.9914
G0 F2700 X54.049 Y59.554
G1 F2400 E179.4914
G0 F7200 X54.781 Y60.172
G0 X57.075 Y60.675
G0 X58.098 Y60.042
G0 X61.842 Y60.042
G0 X62.865 Y60.675
G0 X62.995 Y60.675
G1 F2400 E182.00604
G1 F3000 X62.995 Y59.325 E182.04042
G1 X65.827 Y59.325 E182.11254
G1 X65.828 Y59.325 E182.11256
G1 X66.057 Y59.325 E182.11839
G1 X65.995 Y59.546 E182.12191
G1 X65.678 Y60.675 E182.15177
G1 X63.193 Y60.675 E182.21505
G0 F2700 X62.995 Y60.675
G1 F2400 E179.71505
G0 F7200 X61.842 Y60.042
G0 X58.098 Y60.042
G0 X57.075 Y60.755
G0 X57.27 Y60.87
;TYPE:WALL-OUTER
G1 F2400 E182.22009
G1 F2250 X62.67 Y60.87 E182.3576
G1 X62.67 Y59 E182.40522
G1 X66.256 Y59 E182.49654
G1 X66.257 Y59 E182.49656
G1 X66.486 Y59 E182.5024
G1 X66.424 Y59.221 E182.50591
G1 X65.925 Y61 E182.55296
G1 X62.67 Y61 E182.63585
G1 X57.27 Y61 E182.68692
G1 X54.18 Y61 E182.76561
G1 X53.6 Y59.229 E182.81307
G1 X53.526 Y59 E182.81919
G1 X53.766 Y59 E182.82284
G1 X53.767 Y59 E182.82286
G1 X57.27 Y59 E182.91206
G1 X57.27 Y60.474 E182.9496
G0 F2025 X57.27 Y60.87
G0 F7200 X57.47 Y60.87
G0 X57.025 Y60.755
G0 X56.152 Y60.24
G0 X56.152 Y60.167
;TYPE:SKIN
G1 F2400 E182.95968
G1 F1200 X56.437 Y59.881 E182.96996
G0 F7200 X55.992 Y59.831
G1 F1200 X55.657 Y60.167 E182.98205
G0 F7200 X55.497 Y59.831
G1 F1200 X55.162 Y60.167 E182.99413
G0 F7200 X55.003 Y59.831
G1 F1200 X54.754 Y60.079 E183.00308
G1 F2400 E180.50308
G0 F7200 X54.686 Y60.099
G0 X57.075 Y60.24
G0 X58.098 Y60.042
G0 X61.842 Y60.042
G0 X62.865 Y60.24
G0 X63.575 Y60.24
G0 X63.575 Y60.168
G1 F2400 E183.00308
G1 F1200 X63.911 Y59.831 E183.0152
G0 F7200 X64.07 Y60.168
G1 F1200 X64.406 Y59.831 E183.02732
G0 F7200 X64.565 Y60.168
G1 F1200 X64.901 Y59.831 E183.03943
G0 F7200 X65.06 Y60.168
G1 F1200 X65.382 Y59.845 E183.05105
G0 F7200 X65.63 Y59.649
G1 F2400 E180.55105
;MESH:alarm door v 3.stl(2)
G0 F7200 X65.533 Y60.805
G0 X65.533 Y61.84
G0 X65.533 Y68.16
G0 X65.533 Y69.195
G0 X65.533 Y69.896
;TYPE:WALL-INNER
G1 F2400 E183.05105
G1 F3000 X65.413 Y70.325 E183.06239
G1 X63.345 Y70.325 E183.11505
G1 X63.345 Y69.675 E183.1316
G1 X65.365 Y69.675 E183.18304
G1 X65.366 Y69.675 E183.18307
G1 X65.595 Y69.675 E183.1889
G1 X65.533 Y69.896 E183.19242
G1 F2400 E180.69242
G0 F7200 X62.865 Y70.325
G0 X61.842 Y70.042
G0 X58.098 Y70.042
G0 X57.075 Y70.325
G0 X54.67 Y70.325
G1 F2400 E183.19242
G1 F3000 X54.532 Y69.904 E183.2037
G1 X54.457 Y69.675 E183.20983
G1 X54.697 Y69.675 E183.21347
G1 X54.698 Y69.675 E183.21349
G1 X56.595 Y69.675 E183.2618
G1 X56.595 Y70.325 E183.27835
G1 X55 Y70.325 E183.31897
G0 F2700 X54.67 Y70.325
G0 F7200 X54.049 Y69.554
G1 F2400 E183.32737
G1 F3000 X53.974 Y69.325 E183.33351
G1 X54.214 Y69.325 E183.33714
G1 X54.215 Y69.325 E183.33717
G1 X56.945 Y69.325 E183.40669
G1 X56.945 Y70.675 E183.44107
G1 X54.416 Y70.675 E183.50547
G1 X54.227 Y70.1 E183.52088
G0 F2700 X54.049 Y69.554
G1 F2400 E181.02088
G0 F7200 X54.781 Y70.172
G0 X57.075 Y70.675
G0 X58.098 Y70.042
G0 X61.842 Y70.042
G0 X62.865 Y70.675
G0 X62.995 Y70.675
G1 F2400 E183.53552
G1 F3000 X62.995 Y69.325 E183.5699
G1 X65.827 Y69.325 E183.64202
G1 X65.828 Y69.325 E183.64204
G1 X66.057 Y69.325 E183.64787
G1 X65.995 Y69.546 E183.65139
G1 X65.678 Y70.675 E183.68125
G1 X63.193 Y70.675 E183.74453
G0 F2700 X62.995 Y70.675
G1 F2400 E181.24453
G0 F7200 X61.842 Y70.042
G0 X58.098 Y70.042
G0 X57.075 Y70.755
G0 X57.27 Y70.87
;TYPE:WALL-OUTER
G1 F2400 E183.74957
G1 F2250 X62.67 Y70.87 E183.88708
G1 X62.67 Y69 E183.9347
G1 X66.256 Y69 E184.02602
G1 X66.257 Y69 E184.02604
G1 X66.486 Y69 E184.03188
G1 X66.424 Y69.221 E184.03539
G1 X65.925 Y71 E184.08244
G1 X62.67 Y71 E184.16533
G1 X57.27 Y71 E184.2164
G1 X54.18 Y71 E184.29509
G1 X53.6 Y69.229 E184.34255
G1 X53.526 Y69 E184.34867
G1 X53.766 Y69 E184.35232
G1 X53.767 Y69 E184.35234
G1 X57.27 Y69 E184.44154
G1 X57.27 Y70.474 E184.47908
G0 F2025 X57.27 Y70.87
G0 F7200 X57.47 Y70.87
G0 X57.025 Y70.755
G0 X56.387 Y69.76
G0 X56.387 Y69.831
;TYPE:SKIN
G1 F2400 E184.48916
G1 F1200 X56.051 Y70.166 E184.50125
G0 F7200 X55.892 Y69.831
G1 F1200 X55.556 Y70.166 E184.51333
G0 F7200 X55.397 Y69.831
G1 F1200 X55.061 Y70.166 E184.52541
G0 F7200 X54.73 Y70.003
G1 F1200 X54.902 Y69.831 E184.5316
G1 F2400 E182.0316
G0 F7200 X54.902 Y69.76
G0 X56.438 Y69.832
G0 X57.075 Y70.21
G0 X58.098 Y70.042
G0 X61.842 Y70.042
G0 X62.865 Y70.21
G0 X63.502 Y70.14
G1 F2400 E184.5316
G1 F1200 X63.812 Y69.831 E184.54275
G0 F7200 X63.97 Y70.167
G1 F1200 X64.307 Y69.831 E184.55487
G0 F7200 X64.465 Y70.167
G1 F1200 X64.802 Y69.831 E184.56699
G0 F7200 X64.96 Y70.167
G1 F1200 X65.297 Y69.831 E184.5791
G0 F7200 X65.297 Y69.525
;TIME_ELAPSED:279.819107
G1 F2400 E182.0791
M140 S0
M141 S0
M107
G0 X0 Y120;(Stick out the part)
M190 S0;(Turn off heat bed, don't wait.)
G92 E10;(Set extruder to 10)
G1 E7 F200;(retract 3mm)
M104 S0;(Turn off nozzle, don't wait)
G4 S300;(Delay 5 minutes)
M107;(Turn off part fan)
M84;(Turn off stepper motors.)
M82 ;absolute extrusion mode
M104 S0
;End of Gcode
;SETTING_3 {"global_quality": "[general]\\nversion = 4\\nname = Normal #2\\ndefi
;SETTING_3 nition = monoprice_select_mini_v2\\n\\n[metadata]\\ntype = quality_ch
;SETTING_3 anges\\nquality_type = fast\\nsetting_version = 8\\n\\n[values]\\nadh
;SETTING_3 esion_type = raft\\nsupport_enable = True\\n\\n", "extruder_quality":
;SETTING_3  ["[general]\\nversion = 4\\nname = Normal #2\\ndefinition = monopric
;SETTING_3 e_select_mini_v2\\n\\n[metadata]\\ntype = quality_changes\\nquality_t
;SETTING_3 ype = fast\\nsetting_version = 8\\nposition = 0\\n\\n[values]\\ninfil
;SETTING_3 l_sparse_density = 100\\n\\n"]}
